   392.90784311556280        478.30816005918791     
   518.04259164060113        398.41092372033120     
   546.83743583239766        508.21459208186172     
   402.15373573670632        498.98577002344456     
   392.90784311556280        478.30816005918791     

   489.45877972861359        457.19917768508213     
   478.58004306681670        432.86985836786221     
   511.69384539672149        418.06318290272247     
   522.57258205851838        442.39250221994240     
   489.45877972861359        457.19917768508213     

   415.42959622395347        485.18855941338467     
   408.03445033375442        468.64997856953494     
   431.02115213965055        453.97320837992584     
   440.05530957042117        474.17729160469162     
   415.42959622395347        485.18855941338467     

   461.76698085307112        500.72421807525797     
   450.09417059261983        474.61902433956061     
   480.89095710925062        460.84839121268664     
   492.56376736970196        486.95358494838399     
   461.76698085307112        500.72421807525797     

   504.14096487597163        505.49114685120600     
   490.02944871139914        473.93200597930195     
   506.24465172916450        466.68145690935779     
   521.66300178863321        501.16321463576753     
   511.00482528653208        505.92896635900809     
   504.14096487597163        505.49114685120600     

   443.23568786826206        473.93621460689741     
   433.57905260727262        452.34001551701789     
   457.62679581780424        436.98578141853693     
   468.99809762728700        462.41667853243877     
   443.23568786826206        473.93621460689741     

   511.49489269218242        470.05094367355855     
   504.25973945205999        453.87017204902668     
   529.61325983283041        442.53346886897987     
   534.17050416528389        459.91165442157796     
   511.49489269218242        470.05094367355855     

   404.60348033167099        499.14202989888702     
   402.43266048588930        494.28718591744820     
   433.75027546601319        480.28366687928207     
   443.28599102499163        501.60943989548900     
   404.60348033167099        499.14202989888702     

   443.04288444173807        493.71333056293207     
   436.49015298929248        479.05873409067891     
   441.28184772624616        476.91615112206534     
   447.83457917869174        491.57074759431850     
   443.04288444173807        493.71333056293207     

   526.41416622125621        504.43825727238641     
   513.96294579070877        476.59221897203054     
   535.48355845785238        466.96938181190166     
   536.78398631718790        469.87767214214637     
   543.80759515600505        496.66087022099913     
   526.41416622125621        504.43825727238641     

   488.80358163907755        471.19370046372700     
   484.92320023508910        462.51557531140418     
   501.51491295662584        455.09667176082144     
   505.39529436061423        463.77479691314431     
   488.80358163907755        471.19370046372700     

   399.32121841740587        492.38950170960794     
   392.99883664130437        478.25006163874781     
   405.47667418338102        470.28309205717164     
   412.68875818407901        486.41227139577802     
   399.32121841740587        492.38950170960794     

   446.66876320257728        501.82521404607024     
   444.26808728981860        496.45631757633822     
   454.52193823130403        491.87135805867570     
   459.33399007069806        502.63308061996946     
   446.66876320257728        501.82521404607024     

   471.91001982644639        461.57707778114434     
   460.18405130806491        435.35300036697060     
   465.49788621660178        431.96017200748349     
   473.32090329286831        428.46214801578031     
   485.42576204149367        455.53357946419129     
   471.91001982644639        461.57707778114434     

   483.56818446256784        427.34869211102887     
   481.15898142508149        421.96072549125972     
   505.36043096219873        406.50835150080837     
   509.49526020847509        415.75552644237189     
   483.56818446256784        427.34869211102887     

   512.73994805554571        473.85249224453759     
   512.34051626796406        472.95919885876719     
   533.64731630495578        463.43196697505647     
   534.04674809253743        464.32526036082686     
   512.73994805554571        473.85249224453759     

   516.36278999393289        421.14258602824066     
   508.82891865656006        404.29375815786204     
   517.35069842681673        398.85269034610513     
   517.97665850088924        398.57279534707760     
   518.23875198400515        399.15894392663472     
   523.20179325606728        418.08455902190065     
   516.36278999393289        421.14258602824066     

   477.35550829539943        430.13080972477627     
   475.35835839478909        425.66436300703060     
   478.59866366133303        423.59546177262007     
   480.82685574327439        428.57861361708228     
   477.35550829539943        430.13080972477627     

   525.31450134141278        441.16547254197178     
   517.58644056380217        423.88235739665924     
   523.97328846800951        421.02650945685912     
   528.84100308451798        439.58861445973787     
   525.31450134141278        441.16547254197178     

   464.16102443225634        502.94097875336820     
   491.32856180872182        490.79314670699819     
   497.71749275665735        505.08141803484904     
   464.16102443225634        502.94097875336820     

   450.57613073772268        490.34867664021630     
   444.46231613769612        476.67567836159469     
   447.18131062612503        475.45989321615667     
   453.29512522615153        489.13289149477822     
   450.57613073772268        490.34867664021630     

   528.00486818468391        507.01333433403727     
   544.57895679924127        499.60231131707030     
   546.79799235328039        508.06418186706185     
   546.50853218625730        508.19361257122864     
   528.00486818468391        507.01333433403727     

