v      0.0000000      0.0000000      0.0750000
v      0.0000000      0.0000000      0.1250000
v      0.0000000      0.0122521      0.1243981
v      0.0000000      0.0073513      0.0746389
v     -0.0800000      0.0000000      0.0750000
v     -0.0800000      0.0000000      0.1250000
v     -0.0800000      0.0122521      0.1243981
v     -0.0800000      0.0073513      0.0746389
v      0.0000000      0.0073513      0.0746389
v      0.0000000      0.0122521      0.1243981
v      0.0000000      0.0243863      0.1225982
v      0.0000000      0.0146318      0.0735589
v     -0.0800000      0.0073513      0.0746389
v     -0.0800000      0.0122521      0.1243981
v     -0.0800000      0.0243863      0.1225982
v     -0.0800000      0.0146318      0.0735589
v      0.0000000      0.0146318      0.0735589
v      0.0000000      0.0243863      0.1225982
v      0.0000000      0.0362856      0.1196175
v      0.0000000      0.0217714      0.0717705
v     -0.0800000      0.0146318      0.0735589
v     -0.0800000      0.0243863      0.1225982
v     -0.0800000      0.0362856      0.1196175
v     -0.0800000      0.0217714      0.0717705
v      0.0000000      0.0217714      0.0717705
v      0.0000000      0.0362856      0.1196175
v      0.0000000      0.0478354      0.1154849
v      0.0000000      0.0287013      0.0692910
v     -0.0800000      0.0217714      0.0717705
v     -0.0800000      0.0362856      0.1196175
v     -0.0800000      0.0478354      0.1154849
v     -0.0800000      0.0287013      0.0692910
v      0.0000000      0.0287013      0.0692910
v      0.0000000      0.0478354      0.1154849
v      0.0000000      0.0589246      0.1102402
v      0.0000000      0.0353548      0.0661441
v     -0.0800000      0.0287013      0.0692910
v     -0.0800000      0.0478354      0.1154849
v     -0.0800000      0.0589246      0.1102402
v     -0.0800000      0.0353548      0.0661441
v      0.0000000      0.0353548      0.0661441
v      0.0000000      0.0589246      0.1102402
v      0.0000000      0.0694463      0.1039337
v      0.0000000      0.0416678      0.0623602
v     -0.0800000      0.0353548      0.0661441
v     -0.0800000      0.0589246      0.1102402
v     -0.0800000      0.0694463      0.1039337
v     -0.0800000      0.0416678      0.0623602
v      0.0000000      0.0416678      0.0623602
v      0.0000000      0.0694463      0.1039337
v      0.0000000      0.0792992      0.0966263
v      0.0000000      0.0475795      0.0579758
v     -0.0800000      0.0416678      0.0623602
v     -0.0800000      0.0694463      0.1039337
v     -0.0800000      0.0792992      0.0966263
v     -0.0800000      0.0475795      0.0579758
v      0.0000000      0.0475795      0.0579758
v      0.0000000      0.0792992      0.0966263
v      0.0000000      0.0883883      0.0883883
v      0.0000000      0.0530330      0.0530330
v     -0.0800000      0.0475795      0.0579758
v     -0.0800000      0.0792992      0.0966263
v     -0.0800000      0.0883883      0.0883883
v     -0.0800000      0.0530330      0.0530330
v      0.0000000      0.0530330      0.0530330
v      0.0000000      0.0883883      0.0883883
v      0.0000000      0.0966263      0.0792992
v      0.0000000      0.0579758      0.0475795
v     -0.0800000      0.0530330      0.0530330
v     -0.0800000      0.0883883      0.0883883
v     -0.0800000      0.0966263      0.0792992
v     -0.0800000      0.0579758      0.0475795
v      0.0000000      0.0579758      0.0475795
v      0.0000000      0.0966263      0.0792992
v      0.0000000      0.1039337      0.0694463
v      0.0000000      0.0623602      0.0416678
v     -0.0800000      0.0579758      0.0475795
v     -0.0800000      0.0966263      0.0792992
v     -0.0800000      0.1039337      0.0694463
v     -0.0800000      0.0623602      0.0416678
v      0.0000000      0.0623602      0.0416678
v      0.0000000      0.1039337      0.0694463
v      0.0000000      0.1102402      0.0589246
v      0.0000000      0.0661441      0.0353548
v     -0.0800000      0.0623602      0.0416678
v     -0.0800000      0.1039337      0.0694463
v     -0.0800000      0.1102402      0.0589246
v     -0.0800000      0.0661441      0.0353548
v      0.0000000      0.0661441      0.0353548
v      0.0000000      0.1102402      0.0589246
v      0.0000000      0.1154849      0.0478354
v      0.0000000      0.0692910      0.0287013
v     -0.0800000      0.0661441      0.0353548
v     -0.0800000      0.1102402      0.0589246
v     -0.0800000      0.1154849      0.0478354
v     -0.0800000      0.0692910      0.0287013
v      0.0000000      0.0692910      0.0287013
v      0.0000000      0.1154849      0.0478354
v      0.0000000      0.1196175      0.0362856
v      0.0000000      0.0717705      0.0217714
v     -0.0800000      0.0692910      0.0287013
v     -0.0800000      0.1154849      0.0478354
v     -0.0800000      0.1196175      0.0362856
v     -0.0800000      0.0717705      0.0217714
v      0.0000000      0.0717705      0.0217714
v      0.0000000      0.1196175      0.0362856
v      0.0000000      0.1225982      0.0243863
v      0.0000000      0.0735589      0.0146318
v     -0.0800000      0.0717705      0.0217714
v     -0.0800000      0.1196175      0.0362856
v     -0.0800000      0.1225982      0.0243863
v     -0.0800000      0.0735589      0.0146318
v      0.0000000      0.0735589      0.0146318
v      0.0000000      0.1225982      0.0243863
v      0.0000000      0.1243981      0.0122521
v      0.0000000      0.0746389      0.0073513
v     -0.0800000      0.0735589      0.0146318
v     -0.0800000      0.1225982      0.0243863
v     -0.0800000      0.1243981      0.0122521
v     -0.0800000      0.0746389      0.0073513
v      0.0000000      0.0746389      0.0073513
v      0.0000000      0.1243981      0.0122521
v      0.0000000      0.1250000      0.0000000
v      0.0000000      0.0750000      0.0000000
v     -0.0800000      0.0746389      0.0073513
v     -0.0800000      0.1243981      0.0122521
v     -0.0800000      0.1250000      0.0000000
v     -0.0800000      0.0750000      0.0000000
v      0.0000000      0.0750000      0.0000000
v      0.0000000      0.1250000      0.0000000
v     -0.0000000      0.1243981     -0.0122521
v     -0.0000000      0.0746389     -0.0073513
v     -0.0800000      0.0750000      0.0000000
v     -0.0800000      0.1250000      0.0000000
v     -0.0800000      0.1243981     -0.0122521
v     -0.0800000      0.0746389     -0.0073513
v     -0.0000000      0.0746389     -0.0073513
v     -0.0000000      0.1243981     -0.0122521
v     -0.0000000      0.1225982     -0.0243863
v     -0.0000000      0.0735589     -0.0146318
v     -0.0800000      0.0746389     -0.0073513
v     -0.0800000      0.1243981     -0.0122521
v     -0.0800000      0.1225982     -0.0243863
v     -0.0800000      0.0735589     -0.0146318
v     -0.0000000      0.0735589     -0.0146318
v     -0.0000000      0.1225982     -0.0243863
v     -0.0000000      0.1196175     -0.0362856
v     -0.0000000      0.0717705     -0.0217714
v     -0.0800000      0.0735589     -0.0146318
v     -0.0800000      0.1225982     -0.0243863
v     -0.0800000      0.1196175     -0.0362856
v     -0.0800000      0.0717705     -0.0217714
v     -0.0000000      0.0717705     -0.0217714
v     -0.0000000      0.1196175     -0.0362856
v     -0.0000000      0.1154849     -0.0478354
v     -0.0000000      0.0692910     -0.0287013
v     -0.0800000      0.0717705     -0.0217714
v     -0.0800000      0.1196175     -0.0362856
v     -0.0800000      0.1154849     -0.0478354
v     -0.0800000      0.0692910     -0.0287013
v     -0.0000000      0.0692910     -0.0287013
v     -0.0000000      0.1154849     -0.0478354
v     -0.0000000      0.1102402     -0.0589246
v     -0.0000000      0.0661441     -0.0353548
v     -0.0800000      0.0692910     -0.0287013
v     -0.0800000      0.1154849     -0.0478354
v     -0.0800000      0.1102402     -0.0589246
v     -0.0800000      0.0661441     -0.0353548
v     -0.0000000      0.0661441     -0.0353548
v     -0.0000000      0.1102402     -0.0589246
v     -0.0000000      0.1039337     -0.0694463
v     -0.0000000      0.0623602     -0.0416678
v     -0.0800000      0.0661441     -0.0353548
v     -0.0800000      0.1102402     -0.0589246
v     -0.0800000      0.1039337     -0.0694463
v     -0.0800000      0.0623602     -0.0416678
v     -0.0000000      0.0623602     -0.0416678
v     -0.0000000      0.1039337     -0.0694463
v     -0.0000000      0.0966263     -0.0792992
v     -0.0000000      0.0579758     -0.0475795
v     -0.0800000      0.0623602     -0.0416678
v     -0.0800000      0.1039337     -0.0694463
v     -0.0800000      0.0966263     -0.0792992
v     -0.0800000      0.0579758     -0.0475795
v     -0.0000000      0.0579758     -0.0475795
v     -0.0000000      0.0966263     -0.0792992
v     -0.0000000      0.0883883     -0.0883883
v     -0.0000000      0.0530330     -0.0530330
v     -0.0800000      0.0579758     -0.0475795
v     -0.0800000      0.0966263     -0.0792992
v     -0.0800000      0.0883883     -0.0883883
v     -0.0800000      0.0530330     -0.0530330
v     -0.0000000      0.0530330     -0.0530330
v     -0.0000000      0.0883883     -0.0883883
v     -0.0000000      0.0792992     -0.0966263
v     -0.0000000      0.0475795     -0.0579758
v     -0.0800000      0.0530330     -0.0530330
v     -0.0800000      0.0883883     -0.0883883
v     -0.0800000      0.0792992     -0.0966263
v     -0.0800000      0.0475795     -0.0579758
v     -0.0000000      0.0475795     -0.0579758
v     -0.0000000      0.0792992     -0.0966263
v     -0.0000000      0.0694463     -0.1039337
v     -0.0000000      0.0416678     -0.0623602
v     -0.0800000      0.0475795     -0.0579758
v     -0.0800000      0.0792992     -0.0966263
v     -0.0800000      0.0694463     -0.1039337
v     -0.0800000      0.0416678     -0.0623602
v     -0.0000000      0.0416678     -0.0623602
v     -0.0000000      0.0694463     -0.1039337
v     -0.0000000      0.0589246     -0.1102402
v     -0.0000000      0.0353548     -0.0661441
v     -0.0800000      0.0416678     -0.0623602
v     -0.0800000      0.0694463     -0.1039337
v     -0.0800000      0.0589246     -0.1102402
v     -0.0800000      0.0353548     -0.0661441
v     -0.0000000      0.0353548     -0.0661441
v     -0.0000000      0.0589246     -0.1102402
v     -0.0000000      0.0478354     -0.1154849
v     -0.0000000      0.0287013     -0.0692910
v     -0.0800000      0.0353548     -0.0661441
v     -0.0800000      0.0589246     -0.1102402
v     -0.0800000      0.0478354     -0.1154849
v     -0.0800000      0.0287013     -0.0692910
v     -0.0000000      0.0287013     -0.0692910
v     -0.0000000      0.0478354     -0.1154849
v     -0.0000000      0.0362856     -0.1196175
v     -0.0000000      0.0217714     -0.0717705
v     -0.0800000      0.0287013     -0.0692910
v     -0.0800000      0.0478354     -0.1154849
v     -0.0800000      0.0362856     -0.1196175
v     -0.0800000      0.0217714     -0.0717705
v     -0.0000000      0.0217714     -0.0717705
v     -0.0000000      0.0362856     -0.1196175
v     -0.0000000      0.0243863     -0.1225982
v     -0.0000000      0.0146318     -0.0735589
v     -0.0800000      0.0217714     -0.0717705
v     -0.0800000      0.0362856     -0.1196175
v     -0.0800000      0.0243863     -0.1225982
v     -0.0800000      0.0146318     -0.0735589
v     -0.0000000      0.0146318     -0.0735589
v     -0.0000000      0.0243863     -0.1225982
v     -0.0000000      0.0122521     -0.1243981
v     -0.0000000      0.0073513     -0.0746389
v     -0.0800000      0.0146318     -0.0735589
v     -0.0800000      0.0243863     -0.1225982
v     -0.0800000      0.0122521     -0.1243981
v     -0.0800000      0.0073513     -0.0746389
v     -0.0000000      0.0073513     -0.0746389
v     -0.0000000      0.0122521     -0.1243981
v     -0.0000000      0.0000000     -0.1250000
v     -0.0000000      0.0000000     -0.0750000
v     -0.0800000      0.0073513     -0.0746389
v     -0.0800000      0.0122521     -0.1243981
v     -0.0800000      0.0000000     -0.1250000
v     -0.0800000      0.0000000     -0.0750000
v     -0.0000000      0.0000000     -0.0750000
v     -0.0000000      0.0000000     -0.1250000
v     -0.0000000     -0.0122521     -0.1243981
v     -0.0000000     -0.0073513     -0.0746389
v     -0.0800000      0.0000000     -0.0750000
v     -0.0800000      0.0000000     -0.1250000
v     -0.0800000     -0.0122521     -0.1243981
v     -0.0800000     -0.0073513     -0.0746389
v     -0.0000000     -0.0073513     -0.0746389
v     -0.0000000     -0.0122521     -0.1243981
v     -0.0000000     -0.0243863     -0.1225982
v     -0.0000000     -0.0146318     -0.0735589
v     -0.0800000     -0.0073513     -0.0746389
v     -0.0800000     -0.0122521     -0.1243981
v     -0.0800000     -0.0243863     -0.1225982
v     -0.0800000     -0.0146318     -0.0735589
v     -0.0000000     -0.0146318     -0.0735589
v     -0.0000000     -0.0243863     -0.1225982
v     -0.0000000     -0.0362856     -0.1196175
v     -0.0000000     -0.0217714     -0.0717705
v     -0.0800000     -0.0146318     -0.0735589
v     -0.0800000     -0.0243863     -0.1225982
v     -0.0800000     -0.0362856     -0.1196175
v     -0.0800000     -0.0217714     -0.0717705
v     -0.0000000     -0.0217714     -0.0717705
v     -0.0000000     -0.0362856     -0.1196175
v     -0.0000000     -0.0478354     -0.1154849
v     -0.0000000     -0.0287013     -0.0692910
v     -0.0800000     -0.0217714     -0.0717705
v     -0.0800000     -0.0362856     -0.1196175
v     -0.0800000     -0.0478354     -0.1154849
v     -0.0800000     -0.0287013     -0.0692910
v     -0.0000000     -0.0287013     -0.0692910
v     -0.0000000     -0.0478354     -0.1154849
v     -0.0000000     -0.0589246     -0.1102402
v     -0.0000000     -0.0353548     -0.0661441
v     -0.0800000     -0.0287013     -0.0692910
v     -0.0800000     -0.0478354     -0.1154849
v     -0.0800000     -0.0589246     -0.1102402
v     -0.0800000     -0.0353548     -0.0661441
v     -0.0000000     -0.0353548     -0.0661441
v     -0.0000000     -0.0589246     -0.1102402
v     -0.0000000     -0.0694463     -0.1039337
v     -0.0000000     -0.0416678     -0.0623602
v     -0.0800000     -0.0353548     -0.0661441
v     -0.0800000     -0.0589246     -0.1102402
v     -0.0800000     -0.0694463     -0.1039337
v     -0.0800000     -0.0416678     -0.0623602
v     -0.0000000     -0.0416678     -0.0623602
v     -0.0000000     -0.0694463     -0.1039337
v     -0.0000000     -0.0792992     -0.0966263
v     -0.0000000     -0.0475795     -0.0579758
v     -0.0800000     -0.0416678     -0.0623602
v     -0.0800000     -0.0694463     -0.1039337
v     -0.0800000     -0.0792992     -0.0966263
v     -0.0800000     -0.0475795     -0.0579758
v     -0.0000000     -0.0475795     -0.0579758
v     -0.0000000     -0.0792992     -0.0966263
v     -0.0000000     -0.0883883     -0.0883883
v     -0.0000000     -0.0530330     -0.0530330
v     -0.0800000     -0.0475795     -0.0579758
v     -0.0800000     -0.0792992     -0.0966263
v     -0.0800000     -0.0883883     -0.0883883
v     -0.0800000     -0.0530330     -0.0530330
v     -0.0000000     -0.0530330     -0.0530330
v     -0.0000000     -0.0883883     -0.0883883
v     -0.0000000     -0.0966263     -0.0792992
v     -0.0000000     -0.0579758     -0.0475795
v     -0.0800000     -0.0530330     -0.0530330
v     -0.0800000     -0.0883883     -0.0883883
v     -0.0800000     -0.0966263     -0.0792992
v     -0.0800000     -0.0579758     -0.0475795
v     -0.0000000     -0.0579758     -0.0475795
v     -0.0000000     -0.0966263     -0.0792992
v     -0.0000000     -0.1039337     -0.0694463
v     -0.0000000     -0.0623602     -0.0416678
v     -0.0800000     -0.0579758     -0.0475795
v     -0.0800000     -0.0966263     -0.0792992
v     -0.0800000     -0.1039337     -0.0694463
v     -0.0800000     -0.0623602     -0.0416678
v     -0.0000000     -0.0623602     -0.0416678
v     -0.0000000     -0.1039337     -0.0694463
v     -0.0000000     -0.1102402     -0.0589246
v     -0.0000000     -0.0661441     -0.0353548
v     -0.0800000     -0.0623602     -0.0416678
v     -0.0800000     -0.1039337     -0.0694463
v     -0.0800000     -0.1102402     -0.0589246
v     -0.0800000     -0.0661441     -0.0353548
v     -0.0000000     -0.0661441     -0.0353548
v     -0.0000000     -0.1102402     -0.0589246
v     -0.0000000     -0.1154849     -0.0478354
v     -0.0000000     -0.0692910     -0.0287013
v     -0.0800000     -0.0661441     -0.0353548
v     -0.0800000     -0.1102402     -0.0589246
v     -0.0800000     -0.1154849     -0.0478354
v     -0.0800000     -0.0692910     -0.0287013
v     -0.0000000     -0.0692910     -0.0287013
v     -0.0000000     -0.1154849     -0.0478354
v     -0.0000000     -0.1196175     -0.0362856
v     -0.0000000     -0.0717705     -0.0217714
v     -0.0800000     -0.0692910     -0.0287013
v     -0.0800000     -0.1154849     -0.0478354
v     -0.0800000     -0.1196175     -0.0362856
v     -0.0800000     -0.0717705     -0.0217714
v     -0.0000000     -0.0717705     -0.0217714
v     -0.0000000     -0.1196175     -0.0362856
v     -0.0000000     -0.1225982     -0.0243863
v     -0.0000000     -0.0735589     -0.0146318
v     -0.0800000     -0.0717705     -0.0217714
v     -0.0800000     -0.1196175     -0.0362856
v     -0.0800000     -0.1225982     -0.0243863
v     -0.0800000     -0.0735589     -0.0146318
v     -0.0000000     -0.0735589     -0.0146318
v     -0.0000000     -0.1225982     -0.0243863
v     -0.0000000     -0.1243981     -0.0122521
v     -0.0000000     -0.0746389     -0.0073513
v     -0.0800000     -0.0735589     -0.0146318
v     -0.0800000     -0.1225982     -0.0243863
v     -0.0800000     -0.1243981     -0.0122521
v     -0.0800000     -0.0746389     -0.0073513
v     -0.0000000     -0.0746389     -0.0073513
v     -0.0000000     -0.1243981     -0.0122521
v     -0.0000000     -0.1250000     -0.0000000
v     -0.0000000     -0.0750000     -0.0000000
v     -0.0800000     -0.0746389     -0.0073513
v     -0.0800000     -0.1243981     -0.0122521
v     -0.0800000     -0.1250000     -0.0000000
v     -0.0800000     -0.0750000     -0.0000000
v     -0.0000000     -0.0750000     -0.0000000
v     -0.0000000     -0.1250000     -0.0000000
v      0.0000000     -0.1243981      0.0122521
v      0.0000000     -0.0746389      0.0073513
v     -0.0800000     -0.0750000     -0.0000000
v     -0.0800000     -0.1250000     -0.0000000
v     -0.0800000     -0.1243981      0.0122521
v     -0.0800000     -0.0746389      0.0073513
v      0.0000000     -0.0746389      0.0073513
v      0.0000000     -0.1243981      0.0122521
v      0.0000000     -0.1225982      0.0243863
v      0.0000000     -0.0735589      0.0146318
v     -0.0800000     -0.0746389      0.0073513
v     -0.0800000     -0.1243981      0.0122521
v     -0.0800000     -0.1225982      0.0243863
v     -0.0800000     -0.0735589      0.0146318
v      0.0000000     -0.0735589      0.0146318
v      0.0000000     -0.1225982      0.0243863
v      0.0000000     -0.1196175      0.0362856
v      0.0000000     -0.0717705      0.0217714
v     -0.0800000     -0.0735589      0.0146318
v     -0.0800000     -0.1225982      0.0243863
v     -0.0800000     -0.1196175      0.0362856
v     -0.0800000     -0.0717705      0.0217714
v      0.0000000     -0.0717705      0.0217714
v      0.0000000     -0.1196175      0.0362856
v      0.0000000     -0.1154849      0.0478354
v      0.0000000     -0.0692910      0.0287013
v     -0.0800000     -0.0717705      0.0217714
v     -0.0800000     -0.1196175      0.0362856
v     -0.0800000     -0.1154849      0.0478354
v     -0.0800000     -0.0692910      0.0287013
v      0.0000000     -0.0692910      0.0287013
v      0.0000000     -0.1154849      0.0478354
v      0.0000000     -0.1102402      0.0589246
v      0.0000000     -0.0661441      0.0353548
v     -0.0800000     -0.0692910      0.0287013
v     -0.0800000     -0.1154849      0.0478354
v     -0.0800000     -0.1102402      0.0589246
v     -0.0800000     -0.0661441      0.0353548
v      0.0000000     -0.0661441      0.0353548
v      0.0000000     -0.1102402      0.0589246
v      0.0000000     -0.1039337      0.0694463
v      0.0000000     -0.0623602      0.0416678
v     -0.0800000     -0.0661441      0.0353548
v     -0.0800000     -0.1102402      0.0589246
v     -0.0800000     -0.1039337      0.0694463
v     -0.0800000     -0.0623602      0.0416678
v      0.0000000     -0.0623602      0.0416678
v      0.0000000     -0.1039337      0.0694463
v      0.0000000     -0.0966263      0.0792992
v      0.0000000     -0.0579758      0.0475795
v     -0.0800000     -0.0623602      0.0416678
v     -0.0800000     -0.1039337      0.0694463
v     -0.0800000     -0.0966263      0.0792992
v     -0.0800000     -0.0579758      0.0475795
v      0.0000000     -0.0579758      0.0475795
v      0.0000000     -0.0966263      0.0792992
v      0.0000000     -0.0883883      0.0883883
v      0.0000000     -0.0530330      0.0530330
v     -0.0800000     -0.0579758      0.0475795
v     -0.0800000     -0.0966263      0.0792992
v     -0.0800000     -0.0883883      0.0883883
v     -0.0800000     -0.0530330      0.0530330
v      0.0000000     -0.0530330      0.0530330
v      0.0000000     -0.0883883      0.0883883
v      0.0000000     -0.0792992      0.0966263
v      0.0000000     -0.0475795      0.0579758
v     -0.0800000     -0.0530330      0.0530330
v     -0.0800000     -0.0883883      0.0883883
v     -0.0800000     -0.0792992      0.0966263
v     -0.0800000     -0.0475795      0.0579758
v      0.0000000     -0.0475795      0.0579758
v      0.0000000     -0.0792992      0.0966263
v      0.0000000     -0.0694463      0.1039337
v      0.0000000     -0.0416678      0.0623602
v     -0.0800000     -0.0475795      0.0579758
v     -0.0800000     -0.0792992      0.0966263
v     -0.0800000     -0.0694463      0.1039337
v     -0.0800000     -0.0416678      0.0623602
v      0.0000000     -0.0416678      0.0623602
v      0.0000000     -0.0694463      0.1039337
v      0.0000000     -0.0589246      0.1102402
v      0.0000000     -0.0353548      0.0661441
v     -0.0800000     -0.0416678      0.0623602
v     -0.0800000     -0.0694463      0.1039337
v     -0.0800000     -0.0589246      0.1102402
v     -0.0800000     -0.0353548      0.0661441
v      0.0000000     -0.0353548      0.0661441
v      0.0000000     -0.0589246      0.1102402
v      0.0000000     -0.0478354      0.1154849
v      0.0000000     -0.0287013      0.0692910
v     -0.0800000     -0.0353548      0.0661441
v     -0.0800000     -0.0589246      0.1102402
v     -0.0800000     -0.0478354      0.1154849
v     -0.0800000     -0.0287013      0.0692910
v      0.0000000     -0.0287013      0.0692910
v      0.0000000     -0.0478354      0.1154849
v      0.0000000     -0.0362856      0.1196175
v      0.0000000     -0.0217714      0.0717705
v     -0.0800000     -0.0287013      0.0692910
v     -0.0800000     -0.0478354      0.1154849
v     -0.0800000     -0.0362856      0.1196175
v     -0.0800000     -0.0217714      0.0717705
v      0.0000000     -0.0217714      0.0717705
v      0.0000000     -0.0362856      0.1196175
v      0.0000000     -0.0243863      0.1225982
v      0.0000000     -0.0146318      0.0735589
v     -0.0800000     -0.0217714      0.0717705
v     -0.0800000     -0.0362856      0.1196175
v     -0.0800000     -0.0243863      0.1225982
v     -0.0800000     -0.0146318      0.0735589
v      0.0000000     -0.0146318      0.0735589
v      0.0000000     -0.0243863      0.1225982
v      0.0000000     -0.0122521      0.1243981
v      0.0000000     -0.0073513      0.0746389
v     -0.0800000     -0.0146318      0.0735589
v     -0.0800000     -0.0243863      0.1225982
v     -0.0800000     -0.0122521      0.1243981
v     -0.0800000     -0.0073513      0.0746389
v      0.0000000     -0.0073513      0.0746389
v      0.0000000     -0.0122521      0.1243981
v      0.0000000     -0.0000000      0.1250000
v      0.0000000     -0.0000000      0.0750000
v     -0.0800000     -0.0073513      0.0746389
v     -0.0800000     -0.0122521      0.1243981
v     -0.0800000     -0.0000000      0.1250000
v     -0.0800000     -0.0000000      0.0750000
v      0.0000000      0.0000000      0.9750000
v      0.0000000      0.0000000      1.0250000
v      0.0000000      0.1004676      1.0200643
v      0.0000000      0.0955667      0.9703051
v     -0.0800000      0.0000000      0.9750000
v     -0.0800000      0.0000000      1.0250000
v     -0.0800000      0.1004676      1.0200643
v     -0.0800000      0.0955667      0.9703051
v      0.0000000      0.0955667      0.9703051
v      0.0000000      0.1004676      1.0200643
v      0.0000000      0.1999676      1.0053049
v      0.0000000      0.1902131      0.9562656
v     -0.0800000      0.0955667      0.9703051
v     -0.0800000      0.1004676      1.0200643
v     -0.0800000      0.1999676      1.0053049
v     -0.0800000      0.1902131      0.9562656
v      0.0000000      0.1902131      0.9562656
v      0.0000000      0.1999676      1.0053049
v      0.0000000      0.2975418      0.9808638
v      0.0000000      0.2830276      0.9330168
v     -0.0800000      0.1902131      0.9562656
v     -0.0800000      0.1999676      1.0053049
v     -0.0800000      0.2975418      0.9808638
v     -0.0800000      0.2830276      0.9330168
v      0.0000000      0.2830276      0.9330168
v      0.0000000      0.2975418      0.9808638
v      0.0000000      0.3922505      0.9469765
v      0.0000000      0.3731163      0.9007825
v     -0.0800000      0.2830276      0.9330168
v     -0.0800000      0.2975418      0.9808638
v     -0.0800000      0.3922505      0.9469765
v     -0.0800000      0.3731163      0.9007825
v      0.0000000      0.3731163      0.9007825
v      0.0000000      0.3922505      0.9469765
v      0.0000000      0.4831817      0.9039693
v      0.0000000      0.4596118      0.8598732
v     -0.0800000      0.3731163      0.9007825
v     -0.0800000      0.3922505      0.9469765
v     -0.0800000      0.4831817      0.9039693
v     -0.0800000      0.4596118      0.8598732
v      0.0000000      0.4596118      0.8598732
v      0.0000000      0.4831817      0.9039693
v      0.0000000      0.5694595      0.8522564
v      0.0000000      0.5416810      0.8106829
v     -0.0800000      0.4596118      0.8598732
v     -0.0800000      0.4831817      0.9039693
v     -0.0800000      0.5694595      0.8522564
v     -0.0800000      0.5416810      0.8106829
v      0.0000000      0.5416810      0.8106829
v      0.0000000      0.5694595      0.8522564
v      0.0000000      0.6502531      0.7923357
v      0.0000000      0.6185335      0.7536852
v     -0.0800000      0.5416810      0.8106829
v     -0.0800000      0.5694595      0.8522564
v     -0.0800000      0.6502531      0.7923357
v     -0.0800000      0.6185335      0.7536852
v      0.0000000      0.6185335      0.7536852
v      0.0000000      0.6502531      0.7923357
v      0.0000000      0.7247845      0.7247845
v      0.0000000      0.6894291      0.6894291
v     -0.0800000      0.6185335      0.7536852
v     -0.0800000      0.6502531      0.7923357
v     -0.0800000      0.7247845      0.7247845
v     -0.0800000      0.6894291      0.6894291
v      0.0000000      0.6894291      0.6894291
v      0.0000000      0.7247845      0.7247845
v      0.0000000      0.7923357      0.6502531
v      0.0000000      0.7536852      0.6185335
v     -0.0800000      0.6894291      0.6894291
v     -0.0800000      0.7247845      0.7247845
v     -0.0800000      0.7923357      0.6502531
v     -0.0800000      0.7536852      0.6185335
v      0.0000000      0.7536852      0.6185335
v      0.0000000      0.7923357      0.6502531
v      0.0000000      0.8522564      0.5694595
v      0.0000000      0.8106829      0.5416810
v     -0.0800000      0.7536852      0.6185335
v     -0.0800000      0.7923357      0.6502531
v     -0.0800000      0.8522564      0.5694595
v     -0.0800000      0.8106829      0.5416810
v      0.0000000      0.8106829      0.5416810
v      0.0000000      0.8522564      0.5694595
v      0.0000000      0.9039693      0.4831817
v      0.0000000      0.8598732      0.4596118
v     -0.0800000      0.8106829      0.5416810
v     -0.0800000      0.8522564      0.5694595
v     -0.0800000      0.9039693      0.4831817
v     -0.0800000      0.8598732      0.4596118
v      0.0000000      0.8598732      0.4596118
v      0.0000000      0.9039693      0.4831817
v      0.0000000      0.9469765      0.3922505
v      0.0000000      0.9007825      0.3731163
v     -0.0800000      0.8598732      0.4596118
v     -0.0800000      0.9039693      0.4831817
v     -0.0800000      0.9469765      0.3922505
v     -0.0800000      0.9007825      0.3731163
v      0.0000000      0.9007825      0.3731163
v      0.0000000      0.9469765      0.3922505
v      0.0000000      0.9808638      0.2975418
v      0.0000000      0.9330168      0.2830276
v     -0.0800000      0.9007825      0.3731163
v     -0.0800000      0.9469765      0.3922505
v     -0.0800000      0.9808638      0.2975418
v     -0.0800000      0.9330168      0.2830276
v      0.0000000      0.9330168      0.2830276
v      0.0000000      0.9808638      0.2975418
v      0.0000000      1.0053049      0.1999676
v      0.0000000      0.9562656      0.1902131
v     -0.0800000      0.9330168      0.2830276
v     -0.0800000      0.9808638      0.2975418
v     -0.0800000      1.0053049      0.1999676
v     -0.0800000      0.9562656      0.1902131
v      0.0000000      0.9562656      0.1902131
v      0.0000000      1.0053049      0.1999676
v      0.0000000      1.0200643      0.1004676
v      0.0000000      0.9703051      0.0955667
v     -0.0800000      0.9562656      0.1902131
v     -0.0800000      1.0053049      0.1999676
v     -0.0800000      1.0200643      0.1004676
v     -0.0800000      0.9703051      0.0955667
v      0.0000000      0.9703051      0.0955667
v      0.0000000      1.0200643      0.1004676
v      0.0000000      1.0250000      0.0000000
v      0.0000000      0.9750000      0.0000000
v     -0.0800000      0.9703051      0.0955667
v     -0.0800000      1.0200643      0.1004676
v     -0.0800000      1.0250000      0.0000000
v     -0.0800000      0.9750000      0.0000000
v      0.0000000      0.9750000      0.0000000
v      0.0000000      1.0250000      0.0000000
v     -0.0000000      1.0200643     -0.1004676
v     -0.0000000      0.9703051     -0.0955667
v     -0.0800000      0.9750000      0.0000000
v     -0.0800000      1.0250000      0.0000000
v     -0.0800000      1.0200643     -0.1004676
v     -0.0800000      0.9703051     -0.0955667
v     -0.0000000      0.9703051     -0.0955667
v     -0.0000000      1.0200643     -0.1004676
v     -0.0000000      1.0053049     -0.1999676
v     -0.0000000      0.9562656     -0.1902131
v     -0.0800000      0.9703051     -0.0955667
v     -0.0800000      1.0200643     -0.1004676
v     -0.0800000      1.0053049     -0.1999676
v     -0.0800000      0.9562656     -0.1902131
v     -0.0000000      0.9562656     -0.1902131
v     -0.0000000      1.0053049     -0.1999676
v     -0.0000000      0.9808638     -0.2975418
v     -0.0000000      0.9330168     -0.2830276
v     -0.0800000      0.9562656     -0.1902131
v     -0.0800000      1.0053049     -0.1999676
v     -0.0800000      0.9808638     -0.2975418
v     -0.0800000      0.9330168     -0.2830276
v     -0.0000000      0.9330168     -0.2830276
v     -0.0000000      0.9808638     -0.2975418
v     -0.0000000      0.9469765     -0.3922505
v     -0.0000000      0.9007825     -0.3731163
v     -0.0800000      0.9330168     -0.2830276
v     -0.0800000      0.9808638     -0.2975418
v     -0.0800000      0.9469765     -0.3922505
v     -0.0800000      0.9007825     -0.3731163
v     -0.0000000      0.9007825     -0.3731163
v     -0.0000000      0.9469765     -0.3922505
v     -0.0000000      0.9039693     -0.4831817
v     -0.0000000      0.8598732     -0.4596118
v     -0.0800000      0.9007825     -0.3731163
v     -0.0800000      0.9469765     -0.3922505
v     -0.0800000      0.9039693     -0.4831817
v     -0.0800000      0.8598732     -0.4596118
v     -0.0000000      0.8598732     -0.4596118
v     -0.0000000      0.9039693     -0.4831817
v     -0.0000000      0.8522564     -0.5694595
v     -0.0000000      0.8106829     -0.5416810
v     -0.0800000      0.8598732     -0.4596118
v     -0.0800000      0.9039693     -0.4831817
v     -0.0800000      0.8522564     -0.5694595
v     -0.0800000      0.8106829     -0.5416810
v     -0.0000000      0.8106829     -0.5416810
v     -0.0000000      0.8522564     -0.5694595
v     -0.0000000      0.7923357     -0.6502531
v     -0.0000000      0.7536852     -0.6185335
v     -0.0800000      0.8106829     -0.5416810
v     -0.0800000      0.8522564     -0.5694595
v     -0.0800000      0.7923357     -0.6502531
v     -0.0800000      0.7536852     -0.6185335
v     -0.0000000      0.7536852     -0.6185335
v     -0.0000000      0.7923357     -0.6502531
v     -0.0000000      0.7247845     -0.7247845
v     -0.0000000      0.6894291     -0.6894291
v     -0.0800000      0.7536852     -0.6185335
v     -0.0800000      0.7923357     -0.6502531
v     -0.0800000      0.7247845     -0.7247845
v     -0.0800000      0.6894291     -0.6894291
v     -0.0000000      0.6894291     -0.6894291
v     -0.0000000      0.7247845     -0.7247845
v     -0.0000000      0.6502531     -0.7923357
v     -0.0000000      0.6185335     -0.7536852
v     -0.0800000      0.6894291     -0.6894291
v     -0.0800000      0.7247845     -0.7247845
v     -0.0800000      0.6502531     -0.7923357
v     -0.0800000      0.6185335     -0.7536852
v     -0.0000000      0.6185335     -0.7536852
v     -0.0000000      0.6502531     -0.7923357
v     -0.0000000      0.5694595     -0.8522564
v     -0.0000000      0.5416810     -0.8106829
v     -0.0800000      0.6185335     -0.7536852
v     -0.0800000      0.6502531     -0.7923357
v     -0.0800000      0.5694595     -0.8522564
v     -0.0800000      0.5416810     -0.8106829
v     -0.0000000      0.5416810     -0.8106829
v     -0.0000000      0.5694595     -0.8522564
v     -0.0000000      0.4831817     -0.9039693
v     -0.0000000      0.4596118     -0.8598732
v     -0.0800000      0.5416810     -0.8106829
v     -0.0800000      0.5694595     -0.8522564
v     -0.0800000      0.4831817     -0.9039693
v     -0.0800000      0.4596118     -0.8598732
v     -0.0000000      0.4596118     -0.8598732
v     -0.0000000      0.4831817     -0.9039693
v     -0.0000000      0.3922505     -0.9469765
v     -0.0000000      0.3731163     -0.9007825
v     -0.0800000      0.4596118     -0.8598732
v     -0.0800000      0.4831817     -0.9039693
v     -0.0800000      0.3922505     -0.9469765
v     -0.0800000      0.3731163     -0.9007825
v     -0.0000000      0.3731163     -0.9007825
v     -0.0000000      0.3922505     -0.9469765
v     -0.0000000      0.2975418     -0.9808638
v     -0.0000000      0.2830276     -0.9330168
v     -0.0800000      0.3731163     -0.9007825
v     -0.0800000      0.3922505     -0.9469765
v     -0.0800000      0.2975418     -0.9808638
v     -0.0800000      0.2830276     -0.9330168
v     -0.0000000      0.2830276     -0.9330168
v     -0.0000000      0.2975418     -0.9808638
v     -0.0000000      0.1999676     -1.0053049
v     -0.0000000      0.1902131     -0.9562656
v     -0.0800000      0.2830276     -0.9330168
v     -0.0800000      0.2975418     -0.9808638
v     -0.0800000      0.1999676     -1.0053049
v     -0.0800000      0.1902131     -0.9562656
v     -0.0000000      0.1902131     -0.9562656
v     -0.0000000      0.1999676     -1.0053049
v     -0.0000000      0.1004676     -1.0200643
v     -0.0000000      0.0955667     -0.9703051
v     -0.0800000      0.1902131     -0.9562656
v     -0.0800000      0.1999676     -1.0053049
v     -0.0800000      0.1004676     -1.0200643
v     -0.0800000      0.0955667     -0.9703051
v     -0.0000000      0.0955667     -0.9703051
v     -0.0000000      0.1004676     -1.0200643
v     -0.0000000      0.0000000     -1.0250000
v     -0.0000000      0.0000000     -0.9750000
v     -0.0800000      0.0955667     -0.9703051
v     -0.0800000      0.1004676     -1.0200643
v     -0.0800000      0.0000000     -1.0250000
v     -0.0800000      0.0000000     -0.9750000
v     -0.0000000      0.0000000     -0.9750000
v     -0.0000000      0.0000000     -1.0250000
v     -0.0000000     -0.1004676     -1.0200643
v     -0.0000000     -0.0955667     -0.9703051
v     -0.0800000      0.0000000     -0.9750000
v     -0.0800000      0.0000000     -1.0250000
v     -0.0800000     -0.1004676     -1.0200643
v     -0.0800000     -0.0955667     -0.9703051
v     -0.0000000     -0.0955667     -0.9703051
v     -0.0000000     -0.1004676     -1.0200643
v     -0.0000000     -0.1999676     -1.0053049
v     -0.0000000     -0.1902131     -0.9562656
v     -0.0800000     -0.0955667     -0.9703051
v     -0.0800000     -0.1004676     -1.0200643
v     -0.0800000     -0.1999676     -1.0053049
v     -0.0800000     -0.1902131     -0.9562656
v     -0.0000000     -0.1902131     -0.9562656
v     -0.0000000     -0.1999676     -1.0053049
v     -0.0000000     -0.2975418     -0.9808638
v     -0.0000000     -0.2830276     -0.9330168
v     -0.0800000     -0.1902131     -0.9562656
v     -0.0800000     -0.1999676     -1.0053049
v     -0.0800000     -0.2975418     -0.9808638
v     -0.0800000     -0.2830276     -0.9330168
v     -0.0000000     -0.2830276     -0.9330168
v     -0.0000000     -0.2975418     -0.9808638
v     -0.0000000     -0.3922505     -0.9469765
v     -0.0000000     -0.3731163     -0.9007825
v     -0.0800000     -0.2830276     -0.9330168
v     -0.0800000     -0.2975418     -0.9808638
v     -0.0800000     -0.3922505     -0.9469765
v     -0.0800000     -0.3731163     -0.9007825
v     -0.0000000     -0.3731163     -0.9007825
v     -0.0000000     -0.3922505     -0.9469765
v     -0.0000000     -0.4831817     -0.9039693
v     -0.0000000     -0.4596118     -0.8598732
v     -0.0800000     -0.3731163     -0.9007825
v     -0.0800000     -0.3922505     -0.9469765
v     -0.0800000     -0.4831817     -0.9039693
v     -0.0800000     -0.4596118     -0.8598732
v     -0.0000000     -0.4596118     -0.8598732
v     -0.0000000     -0.4831817     -0.9039693
v     -0.0000000     -0.5694595     -0.8522564
v     -0.0000000     -0.5416810     -0.8106829
v     -0.0800000     -0.4596118     -0.8598732
v     -0.0800000     -0.4831817     -0.9039693
v     -0.0800000     -0.5694595     -0.8522564
v     -0.0800000     -0.5416810     -0.8106829
v     -0.0000000     -0.5416810     -0.8106829
v     -0.0000000     -0.5694595     -0.8522564
v     -0.0000000     -0.6502531     -0.7923357
v     -0.0000000     -0.6185335     -0.7536852
v     -0.0800000     -0.5416810     -0.8106829
v     -0.0800000     -0.5694595     -0.8522564
v     -0.0800000     -0.6502531     -0.7923357
v     -0.0800000     -0.6185335     -0.7536852
v     -0.0000000     -0.6185335     -0.7536852
v     -0.0000000     -0.6502531     -0.7923357
v     -0.0000000     -0.7247845     -0.7247845
v     -0.0000000     -0.6894291     -0.6894291
v     -0.0800000     -0.6185335     -0.7536852
v     -0.0800000     -0.6502531     -0.7923357
v     -0.0800000     -0.7247845     -0.7247845
v     -0.0800000     -0.6894291     -0.6894291
v     -0.0000000     -0.6894291     -0.6894291
v     -0.0000000     -0.7247845     -0.7247845
v     -0.0000000     -0.7923357     -0.6502531
v     -0.0000000     -0.7536852     -0.6185335
v     -0.0800000     -0.6894291     -0.6894291
v     -0.0800000     -0.7247845     -0.7247845
v     -0.0800000     -0.7923357     -0.6502531
v     -0.0800000     -0.7536852     -0.6185335
v     -0.0000000     -0.7536852     -0.6185335
v     -0.0000000     -0.7923357     -0.6502531
v     -0.0000000     -0.8522564     -0.5694595
v     -0.0000000     -0.8106829     -0.5416810
v     -0.0800000     -0.7536852     -0.6185335
v     -0.0800000     -0.7923357     -0.6502531
v     -0.0800000     -0.8522564     -0.5694595
v     -0.0800000     -0.8106829     -0.5416810
v     -0.0000000     -0.8106829     -0.5416810
v     -0.0000000     -0.8522564     -0.5694595
v     -0.0000000     -0.9039693     -0.4831817
v     -0.0000000     -0.8598732     -0.4596118
v     -0.0800000     -0.8106829     -0.5416810
v     -0.0800000     -0.8522564     -0.5694595
v     -0.0800000     -0.9039693     -0.4831817
v     -0.0800000     -0.8598732     -0.4596118
v     -0.0000000     -0.8598732     -0.4596118
v     -0.0000000     -0.9039693     -0.4831817
v     -0.0000000     -0.9469765     -0.3922505
v     -0.0000000     -0.9007825     -0.3731163
v     -0.0800000     -0.8598732     -0.4596118
v     -0.0800000     -0.9039693     -0.4831817
v     -0.0800000     -0.9469765     -0.3922505
v     -0.0800000     -0.9007825     -0.3731163
v     -0.0000000     -0.9007825     -0.3731163
v     -0.0000000     -0.9469765     -0.3922505
v     -0.0000000     -0.9808638     -0.2975418
v     -0.0000000     -0.9330168     -0.2830276
v     -0.0800000     -0.9007825     -0.3731163
v     -0.0800000     -0.9469765     -0.3922505
v     -0.0800000     -0.9808638     -0.2975418
v     -0.0800000     -0.9330168     -0.2830276
v     -0.0000000     -0.9330168     -0.2830276
v     -0.0000000     -0.9808638     -0.2975418
v     -0.0000000     -1.0053049     -0.1999676
v     -0.0000000     -0.9562656     -0.1902131
v     -0.0800000     -0.9330168     -0.2830276
v     -0.0800000     -0.9808638     -0.2975418
v     -0.0800000     -1.0053049     -0.1999676
v     -0.0800000     -0.9562656     -0.1902131
v     -0.0000000     -0.9562656     -0.1902131
v     -0.0000000     -1.0053049     -0.1999676
v     -0.0000000     -1.0200643     -0.1004676
v     -0.0000000     -0.9703051     -0.0955667
v     -0.0800000     -0.9562656     -0.1902131
v     -0.0800000     -1.0053049     -0.1999676
v     -0.0800000     -1.0200643     -0.1004676
v     -0.0800000     -0.9703051     -0.0955667
v     -0.0000000     -0.9703051     -0.0955667
v     -0.0000000     -1.0200643     -0.1004676
v     -0.0000000     -1.0250000     -0.0000000
v     -0.0000000     -0.9750000     -0.0000000
v     -0.0800000     -0.9703051     -0.0955667
v     -0.0800000     -1.0200643     -0.1004676
v     -0.0800000     -1.0250000     -0.0000000
v     -0.0800000     -0.9750000     -0.0000000
v     -0.0000000     -0.9750000     -0.0000000
v     -0.0000000     -1.0250000     -0.0000000
v      0.0000000     -1.0200643      0.1004676
v      0.0000000     -0.9703051      0.0955667
v     -0.0800000     -0.9750000     -0.0000000
v     -0.0800000     -1.0250000     -0.0000000
v     -0.0800000     -1.0200643      0.1004676
v     -0.0800000     -0.9703051      0.0955667
v      0.0000000     -0.9703051      0.0955667
v      0.0000000     -1.0200643      0.1004676
v      0.0000000     -1.0053049      0.1999676
v      0.0000000     -0.9562656      0.1902131
v     -0.0800000     -0.9703051      0.0955667
v     -0.0800000     -1.0200643      0.1004676
v     -0.0800000     -1.0053049      0.1999676
v     -0.0800000     -0.9562656      0.1902131
v      0.0000000     -0.9562656      0.1902131
v      0.0000000     -1.0053049      0.1999676
v      0.0000000     -0.9808638      0.2975418
v      0.0000000     -0.9330168      0.2830276
v     -0.0800000     -0.9562656      0.1902131
v     -0.0800000     -1.0053049      0.1999676
v     -0.0800000     -0.9808638      0.2975418
v     -0.0800000     -0.9330168      0.2830276
v      0.0000000     -0.9330168      0.2830276
v      0.0000000     -0.9808638      0.2975418
v      0.0000000     -0.9469765      0.3922505
v      0.0000000     -0.9007825      0.3731163
v     -0.0800000     -0.9330168      0.2830276
v     -0.0800000     -0.9808638      0.2975418
v     -0.0800000     -0.9469765      0.3922505
v     -0.0800000     -0.9007825      0.3731163
v      0.0000000     -0.9007825      0.3731163
v      0.0000000     -0.9469765      0.3922505
v      0.0000000     -0.9039693      0.4831817
v      0.0000000     -0.8598732      0.4596118
v     -0.0800000     -0.9007825      0.3731163
v     -0.0800000     -0.9469765      0.3922505
v     -0.0800000     -0.9039693      0.4831817
v     -0.0800000     -0.8598732      0.4596118
v      0.0000000     -0.8598732      0.4596118
v      0.0000000     -0.9039693      0.4831817
v      0.0000000     -0.8522564      0.5694595
v      0.0000000     -0.8106829      0.5416810
v     -0.0800000     -0.8598732      0.4596118
v     -0.0800000     -0.9039693      0.4831817
v     -0.0800000     -0.8522564      0.5694595
v     -0.0800000     -0.8106829      0.5416810
v      0.0000000     -0.8106829      0.5416810
v      0.0000000     -0.8522564      0.5694595
v      0.0000000     -0.7923357      0.6502531
v      0.0000000     -0.7536852      0.6185335
v     -0.0800000     -0.8106829      0.5416810
v     -0.0800000     -0.8522564      0.5694595
v     -0.0800000     -0.7923357      0.6502531
v     -0.0800000     -0.7536852      0.6185335
v      0.0000000     -0.7536852      0.6185335
v      0.0000000     -0.7923357      0.6502531
v      0.0000000     -0.7247845      0.7247845
v      0.0000000     -0.6894291      0.6894291
v     -0.0800000     -0.7536852      0.6185335
v     -0.0800000     -0.7923357      0.6502531
v     -0.0800000     -0.7247845      0.7247845
v     -0.0800000     -0.6894291      0.6894291
v      0.0000000     -0.6894291      0.6894291
v      0.0000000     -0.7247845      0.7247845
v      0.0000000     -0.6502531      0.7923357
v      0.0000000     -0.6185335      0.7536852
v     -0.0800000     -0.6894291      0.6894291
v     -0.0800000     -0.7247845      0.7247845
v     -0.0800000     -0.6502531      0.7923357
v     -0.0800000     -0.6185335      0.7536852
v      0.0000000     -0.6185335      0.7536852
v      0.0000000     -0.6502531      0.7923357
v      0.0000000     -0.5694595      0.8522564
v      0.0000000     -0.5416810      0.8106829
v     -0.0800000     -0.6185335      0.7536852
v     -0.0800000     -0.6502531      0.7923357
v     -0.0800000     -0.5694595      0.8522564
v     -0.0800000     -0.5416810      0.8106829
v      0.0000000     -0.5416810      0.8106829
v      0.0000000     -0.5694595      0.8522564
v      0.0000000     -0.4831817      0.9039693
v      0.0000000     -0.4596118      0.8598732
v     -0.0800000     -0.5416810      0.8106829
v     -0.0800000     -0.5694595      0.8522564
v     -0.0800000     -0.4831817      0.9039693
v     -0.0800000     -0.4596118      0.8598732
v      0.0000000     -0.4596118      0.8598732
v      0.0000000     -0.4831817      0.9039693
v      0.0000000     -0.3922505      0.9469765
v      0.0000000     -0.3731163      0.9007825
v     -0.0800000     -0.4596118      0.8598732
v     -0.0800000     -0.4831817      0.9039693
v     -0.0800000     -0.3922505      0.9469765
v     -0.0800000     -0.3731163      0.9007825
v      0.0000000     -0.3731163      0.9007825
v      0.0000000     -0.3922505      0.9469765
v      0.0000000     -0.2975418      0.9808638
v      0.0000000     -0.2830276      0.9330168
v     -0.0800000     -0.3731163      0.9007825
v     -0.0800000     -0.3922505      0.9469765
v     -0.0800000     -0.2975418      0.9808638
v     -0.0800000     -0.2830276      0.9330168
v      0.0000000     -0.2830276      0.9330168
v      0.0000000     -0.2975418      0.9808638
v      0.0000000     -0.1999676      1.0053049
v      0.0000000     -0.1902131      0.9562656
v     -0.0800000     -0.2830276      0.9330168
v     -0.0800000     -0.2975418      0.9808638
v     -0.0800000     -0.1999676      1.0053049
v     -0.0800000     -0.1902131      0.9562656
v      0.0000000     -0.1902131      0.9562656
v      0.0000000     -0.1999676      1.0053049
v      0.0000000     -0.1004676      1.0200643
v      0.0000000     -0.0955667      0.9703051
v     -0.0800000     -0.1902131      0.9562656
v     -0.0800000     -0.1999676      1.0053049
v     -0.0800000     -0.1004676      1.0200643
v     -0.0800000     -0.0955667      0.9703051
v      0.0000000     -0.0955667      0.9703051
v      0.0000000     -0.1004676      1.0200643
v      0.0000000     -0.0000000      1.0250000
v      0.0000000     -0.0000000      0.9750000
v     -0.0800000     -0.0955667      0.9703051
v     -0.0800000     -0.1004676      1.0200643
v     -0.0800000     -0.0000000      1.0250000
v     -0.0800000     -0.0000000      0.9750000
v      0.0000000     -0.0250000      0.1000000
v      0.0000000     -0.0250000      1.0000000
v      0.0000000      0.0250000      1.0000000
v      0.0000000      0.0250000      0.1000000
v     -0.0800000     -0.0250000      0.1000000
v     -0.0800000     -0.0250000      1.0000000
v     -0.0800000      0.0250000      1.0000000
v     -0.0800000      0.0250000      0.1000000
v     -0.0000000      0.0991025     -0.0283494
v     -0.0000000      0.8785254     -0.4783494
v     -0.0000000      0.8535254     -0.5216506
v     -0.0000000      0.0741025     -0.0716506
v     -0.0800000      0.0991025     -0.0283494
v     -0.0800000      0.8785254     -0.4783494
v     -0.0800000      0.8535254     -0.5216506
v     -0.0800000      0.0741025     -0.0716506
v     -0.0000000     -0.0741025     -0.0716506
v     -0.0000000     -0.8535254     -0.5216506
v     -0.0000000     -0.8785254     -0.4783494
v     -0.0000000     -0.0991025     -0.0283494
v     -0.0800000     -0.0741025     -0.0716506
v     -0.0800000     -0.8535254     -0.5216506
v     -0.0800000     -0.8785254     -0.4783494
v     -0.0800000     -0.0991025     -0.0283494
f       2       3       6
f       3       7       6
f       5       6       7
f       5       7       8
f       5       8       4
f       5       4       1
f       1       4       2
f       4       3       2
f      10      11      14
f      11      15      14
f      13      14      15
f      13      15      16
f      13      16      12
f      13      12       9
f       9      12      10
f      12      11      10
f      18      19      22
f      19      23      22
f      21      22      23
f      21      23      24
f      21      24      20
f      21      20      17
f      17      20      18
f      20      19      18
f      26      27      30
f      27      31      30
f      29      30      31
f      29      31      32
f      29      32      28
f      29      28      25
f      25      28      26
f      28      27      26
f      34      35      38
f      35      39      38
f      37      38      39
f      37      39      40
f      37      40      36
f      37      36      33
f      33      36      34
f      36      35      34
f      42      43      46
f      43      47      46
f      45      46      47
f      45      47      48
f      45      48      44
f      45      44      41
f      41      44      42
f      44      43      42
f      50      51      54
f      51      55      54
f      53      54      55
f      53      55      56
f      53      56      52
f      53      52      49
f      49      52      50
f      52      51      50
f      58      59      62
f      59      63      62
f      61      62      63
f      61      63      64
f      61      64      60
f      61      60      57
f      57      60      58
f      60      59      58
f      66      67      70
f      67      71      70
f      69      70      71
f      69      71      72
f      69      72      68
f      69      68      65
f      65      68      66
f      68      67      66
f      74      75      78
f      75      79      78
f      77      78      79
f      77      79      80
f      77      80      76
f      77      76      73
f      73      76      74
f      76      75      74
f      82      83      86
f      83      87      86
f      85      86      87
f      85      87      88
f      85      88      84
f      85      84      81
f      81      84      82
f      84      83      82
f      90      91      94
f      91      95      94
f      93      94      95
f      93      95      96
f      93      96      92
f      93      92      89
f      89      92      90
f      92      91      90
f      98      99     102
f      99     103     102
f     101     102     103
f     101     103     104
f     101     104     100
f     101     100      97
f      97     100      98
f     100      99      98
f     106     107     110
f     107     111     110
f     109     110     111
f     109     111     112
f     109     112     108
f     109     108     105
f     105     108     106
f     108     107     106
f     114     115     118
f     115     119     118
f     117     118     119
f     117     119     120
f     117     120     116
f     117     116     113
f     113     116     114
f     116     115     114
f     122     123     126
f     123     127     126
f     125     126     127
f     125     127     128
f     125     128     124
f     125     124     121
f     121     124     122
f     124     123     122
f     130     131     134
f     131     135     134
f     133     134     135
f     133     135     136
f     133     136     132
f     133     132     129
f     129     132     130
f     132     131     130
f     138     139     142
f     139     143     142
f     141     142     143
f     141     143     144
f     141     144     140
f     141     140     137
f     137     140     138
f     140     139     138
f     146     147     150
f     147     151     150
f     149     150     151
f     149     151     152
f     149     152     148
f     149     148     145
f     145     148     146
f     148     147     146
f     154     155     158
f     155     159     158
f     157     158     159
f     157     159     160
f     157     160     156
f     157     156     153
f     153     156     154
f     156     155     154
f     162     163     166
f     163     167     166
f     165     166     167
f     165     167     168
f     165     168     164
f     165     164     161
f     161     164     162
f     164     163     162
f     170     171     174
f     171     175     174
f     173     174     175
f     173     175     176
f     173     176     172
f     173     172     169
f     169     172     170
f     172     171     170
f     178     179     182
f     179     183     182
f     181     182     183
f     181     183     184
f     181     184     180
f     181     180     177
f     177     180     178
f     180     179     178
f     186     187     190
f     187     191     190
f     189     190     191
f     189     191     192
f     189     192     188
f     189     188     185
f     185     188     186
f     188     187     186
f     194     195     198
f     195     199     198
f     197     198     199
f     197     199     200
f     197     200     196
f     197     196     193
f     193     196     194
f     196     195     194
f     202     203     206
f     203     207     206
f     205     206     207
f     205     207     208
f     205     208     204
f     205     204     201
f     201     204     202
f     204     203     202
f     210     211     214
f     211     215     214
f     213     214     215
f     213     215     216
f     213     216     212
f     213     212     209
f     209     212     210
f     212     211     210
f     218     219     222
f     219     223     222
f     221     222     223
f     221     223     224
f     221     224     220
f     221     220     217
f     217     220     218
f     220     219     218
f     226     227     230
f     227     231     230
f     229     230     231
f     229     231     232
f     229     232     228
f     229     228     225
f     225     228     226
f     228     227     226
f     234     235     238
f     235     239     238
f     237     238     239
f     237     239     240
f     237     240     236
f     237     236     233
f     233     236     234
f     236     235     234
f     242     243     246
f     243     247     246
f     245     246     247
f     245     247     248
f     245     248     244
f     245     244     241
f     241     244     242
f     244     243     242
f     250     251     254
f     251     255     254
f     253     254     255
f     253     255     256
f     253     256     252
f     253     252     249
f     249     252     250
f     252     251     250
f     258     259     262
f     259     263     262
f     261     262     263
f     261     263     264
f     261     264     260
f     261     260     257
f     257     260     258
f     260     259     258
f     266     267     270
f     267     271     270
f     269     270     271
f     269     271     272
f     269     272     268
f     269     268     265
f     265     268     266
f     268     267     266
f     274     275     278
f     275     279     278
f     277     278     279
f     277     279     280
f     277     280     276
f     277     276     273
f     273     276     274
f     276     275     274
f     282     283     286
f     283     287     286
f     285     286     287
f     285     287     288
f     285     288     284
f     285     284     281
f     281     284     282
f     284     283     282
f     290     291     294
f     291     295     294
f     293     294     295
f     293     295     296
f     293     296     292
f     293     292     289
f     289     292     290
f     292     291     290
f     298     299     302
f     299     303     302
f     301     302     303
f     301     303     304
f     301     304     300
f     301     300     297
f     297     300     298
f     300     299     298
f     306     307     310
f     307     311     310
f     309     310     311
f     309     311     312
f     309     312     308
f     309     308     305
f     305     308     306
f     308     307     306
f     314     315     318
f     315     319     318
f     317     318     319
f     317     319     320
f     317     320     316
f     317     316     313
f     313     316     314
f     316     315     314
f     322     323     326
f     323     327     326
f     325     326     327
f     325     327     328
f     325     328     324
f     325     324     321
f     321     324     322
f     324     323     322
f     330     331     334
f     331     335     334
f     333     334     335
f     333     335     336
f     333     336     332
f     333     332     329
f     329     332     330
f     332     331     330
f     338     339     342
f     339     343     342
f     341     342     343
f     341     343     344
f     341     344     340
f     341     340     337
f     337     340     338
f     340     339     338
f     346     347     350
f     347     351     350
f     349     350     351
f     349     351     352
f     349     352     348
f     349     348     345
f     345     348     346
f     348     347     346
f     354     355     358
f     355     359     358
f     357     358     359
f     357     359     360
f     357     360     356
f     357     356     353
f     353     356     354
f     356     355     354
f     362     363     366
f     363     367     366
f     365     366     367
f     365     367     368
f     365     368     364
f     365     364     361
f     361     364     362
f     364     363     362
f     370     371     374
f     371     375     374
f     373     374     375
f     373     375     376
f     373     376     372
f     373     372     369
f     369     372     370
f     372     371     370
f     378     379     382
f     379     383     382
f     381     382     383
f     381     383     384
f     381     384     380
f     381     380     377
f     377     380     378
f     380     379     378
f     386     387     390
f     387     391     390
f     389     390     391
f     389     391     392
f     389     392     388
f     389     388     385
f     385     388     386
f     388     387     386
f     394     395     398
f     395     399     398
f     397     398     399
f     397     399     400
f     397     400     396
f     397     396     393
f     393     396     394
f     396     395     394
f     402     403     406
f     403     407     406
f     405     406     407
f     405     407     408
f     405     408     404
f     405     404     401
f     401     404     402
f     404     403     402
f     410     411     414
f     411     415     414
f     413     414     415
f     413     415     416
f     413     416     412
f     413     412     409
f     409     412     410
f     412     411     410
f     418     419     422
f     419     423     422
f     421     422     423
f     421     423     424
f     421     424     420
f     421     420     417
f     417     420     418
f     420     419     418
f     426     427     430
f     427     431     430
f     429     430     431
f     429     431     432
f     429     432     428
f     429     428     425
f     425     428     426
f     428     427     426
f     434     435     438
f     435     439     438
f     437     438     439
f     437     439     440
f     437     440     436
f     437     436     433
f     433     436     434
f     436     435     434
f     442     443     446
f     443     447     446
f     445     446     447
f     445     447     448
f     445     448     444
f     445     444     441
f     441     444     442
f     444     443     442
f     450     451     454
f     451     455     454
f     453     454     455
f     453     455     456
f     453     456     452
f     453     452     449
f     449     452     450
f     452     451     450
f     458     459     462
f     459     463     462
f     461     462     463
f     461     463     464
f     461     464     460
f     461     460     457
f     457     460     458
f     460     459     458
f     466     467     470
f     467     471     470
f     469     470     471
f     469     471     472
f     469     472     468
f     469     468     465
f     465     468     466
f     468     467     466
f     474     475     478
f     475     479     478
f     477     478     479
f     477     479     480
f     477     480     476
f     477     476     473
f     473     476     474
f     476     475     474
f     482     483     486
f     483     487     486
f     485     486     487
f     485     487     488
f     485     488     484
f     485     484     481
f     481     484     482
f     484     483     482
f     490     491     494
f     491     495     494
f     493     494     495
f     493     495     496
f     493     496     492
f     493     492     489
f     489     492     490
f     492     491     490
f     498     499     502
f     499     503     502
f     501     502     503
f     501     503     504
f     501     504     500
f     501     500     497
f     497     500     498
f     500     499     498
f     506     507     510
f     507     511     510
f     509     510     511
f     509     511     512
f     509     512     508
f     509     508     505
f     505     508     506
f     508     507     506
f     514     515     518
f     515     519     518
f     517     518     519
f     517     519     520
f     517     520     516
f     517     516     513
f     513     516     514
f     516     515     514
f     522     523     526
f     523     527     526
f     525     526     527
f     525     527     528
f     525     528     524
f     525     524     521
f     521     524     522
f     524     523     522
f     530     531     534
f     531     535     534
f     533     534     535
f     533     535     536
f     533     536     532
f     533     532     529
f     529     532     530
f     532     531     530
f     538     539     542
f     539     543     542
f     541     542     543
f     541     543     544
f     541     544     540
f     541     540     537
f     537     540     538
f     540     539     538
f     546     547     550
f     547     551     550
f     549     550     551
f     549     551     552
f     549     552     548
f     549     548     545
f     545     548     546
f     548     547     546
f     554     555     558
f     555     559     558
f     557     558     559
f     557     559     560
f     557     560     556
f     557     556     553
f     553     556     554
f     556     555     554
f     562     563     566
f     563     567     566
f     565     566     567
f     565     567     568
f     565     568     564
f     565     564     561
f     561     564     562
f     564     563     562
f     570     571     574
f     571     575     574
f     573     574     575
f     573     575     576
f     573     576     572
f     573     572     569
f     569     572     570
f     572     571     570
f     578     579     582
f     579     583     582
f     581     582     583
f     581     583     584
f     581     584     580
f     581     580     577
f     577     580     578
f     580     579     578
f     586     587     590
f     587     591     590
f     589     590     591
f     589     591     592
f     589     592     588
f     589     588     585
f     585     588     586
f     588     587     586
f     594     595     598
f     595     599     598
f     597     598     599
f     597     599     600
f     597     600     596
f     597     596     593
f     593     596     594
f     596     595     594
f     602     603     606
f     603     607     606
f     605     606     607
f     605     607     608
f     605     608     604
f     605     604     601
f     601     604     602
f     604     603     602
f     610     611     614
f     611     615     614
f     613     614     615
f     613     615     616
f     613     616     612
f     613     612     609
f     609     612     610
f     612     611     610
f     618     619     622
f     619     623     622
f     621     622     623
f     621     623     624
f     621     624     620
f     621     620     617
f     617     620     618
f     620     619     618
f     626     627     630
f     627     631     630
f     629     630     631
f     629     631     632
f     629     632     628
f     629     628     625
f     625     628     626
f     628     627     626
f     634     635     638
f     635     639     638
f     637     638     639
f     637     639     640
f     637     640     636
f     637     636     633
f     633     636     634
f     636     635     634
f     642     643     646
f     643     647     646
f     645     646     647
f     645     647     648
f     645     648     644
f     645     644     641
f     641     644     642
f     644     643     642
f     650     651     654
f     651     655     654
f     653     654     655
f     653     655     656
f     653     656     652
f     653     652     649
f     649     652     650
f     652     651     650
f     658     659     662
f     659     663     662
f     661     662     663
f     661     663     664
f     661     664     660
f     661     660     657
f     657     660     658
f     660     659     658
f     666     667     670
f     667     671     670
f     669     670     671
f     669     671     672
f     669     672     668
f     669     668     665
f     665     668     666
f     668     667     666
f     674     675     678
f     675     679     678
f     677     678     679
f     677     679     680
f     677     680     676
f     677     676     673
f     673     676     674
f     676     675     674
f     682     683     686
f     683     687     686
f     685     686     687
f     685     687     688
f     685     688     684
f     685     684     681
f     681     684     682
f     684     683     682
f     690     691     694
f     691     695     694
f     693     694     695
f     693     695     696
f     693     696     692
f     693     692     689
f     689     692     690
f     692     691     690
f     698     699     702
f     699     703     702
f     701     702     703
f     701     703     704
f     701     704     700
f     701     700     697
f     697     700     698
f     700     699     698
f     706     707     710
f     707     711     710
f     709     710     711
f     709     711     712
f     709     712     708
f     709     708     705
f     705     708     706
f     708     707     706
f     714     715     718
f     715     719     718
f     717     718     719
f     717     719     720
f     717     720     716
f     717     716     713
f     713     716     714
f     716     715     714
f     722     723     726
f     723     727     726
f     725     726     727
f     725     727     728
f     725     728     724
f     725     724     721
f     721     724     722
f     724     723     722
f     730     731     734
f     731     735     734
f     733     734     735
f     733     735     736
f     733     736     732
f     733     732     729
f     729     732     730
f     732     731     730
f     738     739     742
f     739     743     742
f     741     742     743
f     741     743     744
f     741     744     740
f     741     740     737
f     737     740     738
f     740     739     738
f     746     747     750
f     747     751     750
f     749     750     751
f     749     751     752
f     749     752     748
f     749     748     745
f     745     748     746
f     748     747     746
f     754     755     758
f     755     759     758
f     757     758     759
f     757     759     760
f     757     760     756
f     757     756     753
f     753     756     754
f     756     755     754
f     762     763     766
f     763     767     766
f     765     766     767
f     765     767     768
f     765     768     764
f     765     764     761
f     761     764     762
f     764     763     762
f     770     771     774
f     771     775     774
f     773     774     775
f     773     775     776
f     773     776     772
f     773     772     769
f     769     772     770
f     772     771     770
f     778     779     782
f     779     783     782
f     781     782     783
f     781     783     784
f     781     784     780
f     781     780     777
f     777     780     778
f     780     779     778
f     786     787     790
f     787     791     790
f     789     790     791
f     789     791     792
f     789     792     788
f     789     788     785
f     785     788     786
f     788     787     786
f     794     795     798
f     795     799     798
f     797     798     799
f     797     799     800
f     797     800     796
f     797     796     793
f     793     796     794
f     796     795     794
f     802     803     806
f     803     807     806
f     805     806     807
f     805     807     808
f     805     808     804
f     805     804     801
f     801     804     802
f     804     803     802
f     810     811     814
f     811     815     814
f     813     814     815
f     813     815     816
f     813     816     812
f     813     812     809
f     809     812     810
f     812     811     810
f     818     819     822
f     819     823     822
f     821     822     823
f     821     823     824
f     821     824     820
f     821     820     817
f     817     820     818
f     820     819     818
f     826     827     830
f     827     831     830
f     829     830     831
f     829     831     832
f     829     832     828
f     829     828     825
f     825     828     826
f     828     827     826
f     834     835     838
f     835     839     838
f     837     838     839
f     837     839     840
f     837     840     836
f     837     836     833
f     833     836     834
f     836     835     834
f     842     843     846
f     843     847     846
f     845     846     847
f     845     847     848
f     845     848     844
f     845     844     841
f     841     844     842
f     844     843     842
f     850     851     854
f     851     855     854
f     853     854     855
f     853     855     856
f     853     856     852
f     853     852     849
f     849     852     850
f     852     851     850
f     858     859     862
f     859     863     862
f     861     862     863
f     861     863     864
f     861     864     860
f     861     860     857
f     857     860     858
f     860     859     858
f     866     867     870
f     867     871     870
f     869     870     871
f     869     871     872
f     869     872     868
f     869     868     865
f     865     868     866
f     868     867     866
f     874     875     878
f     875     879     878
f     877     878     879
f     877     879     880
f     877     880     876
f     877     876     873
f     873     876     874
f     876     875     874
f     882     883     886
f     883     887     886
f     885     886     887
f     885     887     888
f     885     888     884
f     885     884     881
f     881     884     882
f     884     883     882
f     890     891     894
f     891     895     894
f     893     894     895
f     893     895     896
f     893     896     892
f     893     892     889
f     889     892     890
f     892     891     890
f     898     899     902
f     899     903     902
f     901     902     903
f     901     903     904
f     901     904     900
f     901     900     897
f     897     900     898
f     900     899     898
f     906     907     910
f     907     911     910
f     909     910     911
f     909     911     912
f     909     912     908
f     909     908     905
f     905     908     906
f     908     907     906
f     914     915     918
f     915     919     918
f     917     918     919
f     917     919     920
f     917     920     916
f     917     916     913
f     913     916     914
f     916     915     914
f     922     923     926
f     923     927     926
f     925     926     927
f     925     927     928
f     925     928     924
f     925     924     921
f     921     924     922
f     924     923     922
f     930     931     934
f     931     935     934
f     933     934     935
f     933     935     936
f     933     936     932
f     933     932     929
f     929     932     930
f     932     931     930
f     938     939     942
f     939     943     942
f     941     942     943
f     941     943     944
f     941     944     940
f     941     940     937
f     937     940     938
f     940     939     938
f     946     947     950
f     947     951     950
f     949     950     951
f     949     951     952
f     949     952     948
f     949     948     945
f     945     948     946
f     948     947     946
f     954     955     958
f     955     959     958
f     957     958     959
f     957     959     960
f     957     960     956
f     957     956     953
f     953     956     954
f     956     955     954
f     962     963     966
f     963     967     966
f     965     966     967
f     965     967     968
f     965     968     964
f     965     964     961
f     961     964     962
f     964     963     962
f     970     971     974
f     971     975     974
f     973     974     975
f     973     975     976
f     973     976     972
f     973     972     969
f     969     972     970
f     972     971     970
f     978     979     982
f     979     983     982
f     981     982     983
f     981     983     984
f     981     984     980
f     981     980     977
f     977     980     978
f     980     979     978
f     986     987     990
f     987     991     990
f     989     990     991
f     989     991     992
f     989     992     988
f     989     988     985
f     985     988     986
f     988     987     986
f     994     995     998
f     995     999     998
f     997     998     999
f     997     999    1000
f     997    1000     996
f     997     996     993
f     993     996     994
f     996     995     994
f    1002    1003    1006
f    1003    1007    1006
f    1005    1006    1007
f    1005    1007    1008
f    1005    1008    1004
f    1005    1004    1001
f    1001    1004    1002
f    1004    1003    1002
f    1010    1011    1014
f    1011    1015    1014
f    1013    1014    1015
f    1013    1015    1016
f    1013    1016    1012
f    1013    1012    1009
f    1009    1012    1010
f    1012    1011    1010
f    1018    1019    1022
f    1019    1023    1022
f    1021    1022    1023
f    1021    1023    1024
f    1021    1024    1020
f    1021    1020    1017
f    1017    1020    1018
f    1020    1019    1018
f    1025    1026    1030
f    1025    1030    1029
f    1029    1030    1031
f    1029    1031    1032
f    1027    1028    1032
f    1027    1032    1031
f    1025    1028    1026
f    1028    1027    1026
f    1033    1034    1038
f    1033    1038    1037
f    1037    1038    1039
f    1037    1039    1040
f    1035    1036    1040
f    1035    1040    1039
f    1033    1036    1034
f    1036    1035    1034
f    1041    1042    1046
f    1041    1046    1045
f    1045    1046    1047
f    1045    1047    1048
f    1043    1044    1048
f    1043    1048    1047
f    1041    1044    1042
f    1044    1043    1042
