####
#
# OBJ File Generated by Meshlab
#
####
# Object Fir_Tree.obj
#
# Vertices: 785
# Faces: 864
#
####
v 0.108797 5.161576 0.025343
v 0.096882 5.161576 -0.058832
v 0.119221 5.161816 -0.019293
v 0.386729 4.564173 0.079215
v 0.618987 4.273262 0.029650
v 0.574923 4.273262 -0.230121
v 0.339363 4.564173 -0.200023
v 0.673006 4.356060 -0.113096
v 0.402597 4.666612 -0.067113
v 0.029353 5.161576 -0.100716
v -0.098413 5.161576 -0.025272
v 0.072068 5.161816 -0.094301
v 0.335516 4.564173 -0.210273
v 0.458150 4.273262 -0.414438
v 0.246409 4.273262 -0.564450
v 0.095047 4.564173 -0.380638
v 0.396912 4.356060 -0.552283
v 0.238472 4.666612 -0.328188
v -0.051649 5.161576 -0.092865
v -0.011635 5.161816 -0.114342
v 0.093085 4.564173 -0.378912
v 0.048290 4.273262 -0.612650
v -0.212375 4.273262 -0.574224
v -0.187115 4.564173 -0.337606
v -0.093181 4.356060 -0.669630
v -0.052865 4.666612 -0.397946
v -0.087647 5.161816 -0.068825
v -0.197445 4.564173 -0.333982
v -0.399179 4.273262 -0.461473
v -0.553744 4.273262 -0.253031
v -0.372980 4.564173 -0.097261
v -0.538247 4.356060 -0.403116
v -0.317436 4.666612 -0.239516
v -0.086961 5.161576 0.058081
v -0.108939 5.161816 0.018339
v -0.374341 4.564173 -0.082307
v -0.607786 4.273262 -0.035049
v -0.566094 4.273262 0.225113
v -0.329525 4.564173 0.197352
v -0.662912 4.356060 0.107246
v -0.391543 4.666612 0.063870
v -0.019817 5.161576 0.100579
v -0.062471 5.161816 0.093775
v -0.325772 4.564173 0.207636
v -0.451008 4.273262 0.410488
v -0.240645 4.273262 0.562427
v -0.086868 4.564173 0.380189
v -0.390838 4.356060 0.548934
v -0.229808 4.666612 0.326432
v 0.061254 5.161576 0.093467
v 0.021045 5.161816 0.114579
v -0.084890 4.564173 0.378480
v -0.042974 4.273262 0.612433
v 0.218031 4.273262 0.576387
v 0.195675 4.564173 0.339734
v 0.098164 4.356060 0.670749
v 0.060880 4.666612 0.398846
v 0.097469 5.161816 0.069757
v 0.206038 4.564173 0.336205
v 0.405856 4.273262 0.465345
v 0.562316 4.273262 0.258323
v 0.383726 4.564173 0.101095
v 0.545644 4.356060 0.408308
v 0.326886 4.666612 0.242837
v 0.004910 5.713223 -0.000033
v 0.049322 4.330122 -0.011126
v 0.612248 3.869012 -0.312415
v 0.027982 4.330122 -0.040619
v 0.464554 3.869012 -0.505175
v 0.044346 4.353428 -0.030112
v 0.618372 3.930275 -0.470070
v 0.252014 4.210238 -0.071338
v 0.493013 4.011846 -0.179242
v 0.305074 4.011846 -0.424526
v 0.138183 4.210238 -0.219902
v 0.440934 4.106802 -0.333981
v 0.216141 4.277931 -0.161743
v -0.005963 4.330122 -0.042978
v 0.212729 3.869012 -0.650638
v -0.039261 4.330122 0.011134
v -0.028040 3.869012 -0.682268
v 0.011494 4.353428 -0.049089
v 0.105467 3.930275 -0.766341
v 0.132773 4.210238 -0.224705
v 0.219316 4.011846 -0.472471
v -0.079924 4.011846 -0.511782
v -0.060311 4.210238 -0.250070
v 0.076570 4.106802 -0.544450
v 0.039684 4.277931 -0.263671
v -0.294462 3.869012 -0.614026
v -0.035067 4.330122 -0.023811
v -0.490377 3.869012 -0.470543
v -0.024208 4.353428 -0.039944
v -0.451946 3.930275 -0.623564
v -0.060925 4.210238 -0.248456
v -0.163582 4.011846 -0.491736
v -0.412880 4.011846 -0.309156
v -0.211920 4.210238 -0.137871
v -0.319413 4.106802 -0.443022
v -0.152086 4.277931 -0.214550
v -0.641261 3.869012 -0.221929
v -0.678100 3.869012 0.018098
v -0.043892 4.353428 -0.007511
v -0.759261 3.930275 -0.117199
v -0.216839 4.210238 -0.132566
v -0.462672 4.011846 -0.224457
v -0.508457 4.011846 0.073861
v -0.246382 4.210238 0.059923
v -0.537727 4.106802 -0.083304
v -0.257813 4.277931 -0.040343
v -0.605506 3.869012 0.306990
v -0.018260 4.330122 0.040408
v -0.459577 3.869012 0.501090
v -0.034528 4.353428 0.029752
v -0.613068 3.930275 0.464581
v -0.242564 4.210238 0.069081
v -0.484537 4.011846 0.174781
v -0.298845 4.011846 0.421770
v -0.130093 4.210238 0.218678
v -0.433873 4.106802 0.329989
v -0.207517 4.277931 0.159810
v 0.015662 4.330122 0.043077
v -0.209090 3.869012 0.648845
v 0.031380 3.869012 0.682670
v -0.001851 4.353428 0.049028
v -0.102889 3.930275 0.765522
v -0.124727 4.210238 0.223530
v -0.213528 4.011846 0.470496
v 0.085341 4.011846 0.512536
v 0.068117 4.210238 0.250656
v -0.071445 4.106802 0.543775
v -0.031998 4.277931 0.263344
v 0.298414 3.869012 0.616863
v 0.044939 4.330122 0.024176
v 0.495630 3.869012 0.475173
v 0.033934 4.353428 0.040209
v 0.455805 3.930275 0.627838
v 0.068746 4.210238 0.249048
v 0.169178 4.011846 0.493254
v 0.420133 4.011846 0.312957
v 0.220744 4.210238 0.139845
v 0.325447 4.106802 0.445965
v 0.160212 4.277931 0.215975
v 0.648777 3.869012 0.227947
v 0.687805 3.869012 -0.011734
v 0.053913 4.353428 0.007957
v 0.767728 3.930275 0.124298
v 0.225711 4.210238 0.134586
v 0.470695 4.011846 0.228717
v 0.519201 4.011846 -0.069172
v 0.257010 4.210238 -0.057626
v 0.547036 4.106802 0.088254
v 0.267525 4.277931 0.042740
v 0.057199 3.857090 -0.000858
v 0.737158 3.257624 -0.183413
v 0.041131 3.857090 -0.039221
v 0.626712 3.257624 -0.428068
v 0.056603 3.883718 -0.023275
v 0.783435 3.325345 -0.351562
v 0.298361 3.720120 -0.015106
v 0.594547 3.493452 -0.072445
v 0.449285 3.493452 -0.394223
v 0.210378 3.720120 -0.210002
v 0.576871 3.601942 -0.258143
v 0.281974 3.797461 -0.125015
v 0.003981 3.857090 -0.050678
v 0.392280 3.257624 -0.648027
v -0.047143 3.857090 0.000858
v 0.141092 3.257624 -0.742680
v 0.024992 3.883718 -0.052934
v 0.305955 3.325345 -0.799565
v 0.205608 3.720120 -0.216752
v 0.366354 3.493452 -0.469876
v 0.043676 3.493452 -0.591468
v -0.002598 3.720120 -0.295209
v 0.226276 3.601942 -0.587094
v 0.112185 3.797461 -0.284322
v -0.162847 3.257624 -0.736295
v -0.033384 3.857090 -0.036926
v -0.409838 3.257624 -0.631176
v -0.017107 3.883718 -0.052049
v -0.329953 3.325345 -0.786205
v -0.003701 3.720120 -0.293573
v -0.054610 3.493452 -0.590933
v -0.379460 3.493452 -0.452677
v -0.200458 3.720120 -0.209834
v -0.240647 3.601942 -0.577284
v -0.113940 3.797461 -0.279572
v -0.634824 3.257624 -0.401565
v -0.734897 3.257624 -0.152487
v -0.047443 3.883718 -0.021089
v -0.788196 3.325345 -0.318543
v -0.207310 3.720120 -0.205212
v -0.456891 3.493452 -0.371404
v -0.585446 3.493452 -0.051436
v -0.290260 3.720120 0.001246
v -0.577117 3.601942 -0.233899
v -0.276889 3.797461 -0.113274
v -0.729484 3.257624 0.176733
v -0.031396 3.857090 0.038890
v -0.621275 3.257624 0.422386
v -0.046722 3.883718 0.022803
v -0.777294 3.325345 0.344452
v -0.288395 3.720120 0.012428
v -0.585093 3.493452 0.067062
v -0.442773 3.493452 0.390153
v -0.202194 3.720120 0.208119
v -0.569112 3.601942 0.252913
v -0.273012 3.797461 0.122483
v 0.005648 3.857090 0.050686
v -0.388860 3.257624 0.644475
v -0.138547 3.257624 0.741417
v -0.015383 3.883718 0.052749
v -0.303922 3.325345 0.796794
v -0.197487 3.720120 0.214913
v -0.360536 3.493452 0.466559
v -0.038981 3.493452 0.591091
v 0.009995 3.720120 0.295267
v -0.221533 3.601942 0.585050
v -0.104684 3.797461 0.283333
v 0.165438 3.257624 0.737806
v 0.043137 3.857090 0.037276
v 0.413378 3.257624 0.634945
v 0.026722 3.883718 0.052249
v 0.332082 3.325345 0.789239
v 0.011113 3.720120 0.293641
v 0.059306 3.493452 0.591453
v 0.385404 3.493452 0.456167
v 0.208626 3.720120 0.211701
v 0.245460 3.601942 0.579502
v 0.121475 3.797461 0.280646
v 0.640451 3.257624 0.407397
v 0.742793 3.257624 0.159243
v 0.057340 3.883718 0.021567
v 0.794574 3.325345 0.325779
v 0.215520 3.720120 0.207141
v 0.463574 3.493452 0.375604
v 0.595044 3.493452 0.056823
v 0.300350 3.720120 0.001449
v 0.585049 3.601942 0.239202
v 0.285934 3.797461 0.115843
v 0.055982 3.292956 -0.011232
v 0.798423 2.843073 -0.379292
v 0.032592 3.292956 -0.045624
v 0.615610 2.843073 -0.632867
v 0.050931 3.319585 -0.033081
v 0.812218 2.921938 -0.581923
v 0.289469 3.197352 -0.073247
v 0.568292 3.029083 -0.188452
v 0.361827 3.029083 -0.474834
v 0.164417 3.197352 -0.246704
v 0.513969 3.137573 -0.366904
v 0.251511 3.274693 -0.177687
v -0.006095 3.292956 -0.049450
v 0.297033 2.843073 -0.829490
v -0.045926 3.292956 0.011240
v -0.011589 2.843073 -0.879223
v 0.014045 3.319585 -0.055847
v 0.163355 2.921938 -0.982395
v 0.158398 3.197352 -0.252369
v 0.265485 3.029083 -0.532445
v -0.074950 3.029083 -0.587305
v -0.061266 3.197352 -0.287767
v 0.104860 3.137573 -0.619402
v 0.053385 3.274693 -0.299969
v -0.356967 2.843073 -0.801409
v -0.039971 3.292956 -0.028529
v -0.614444 2.843073 -0.624133
v -0.027033 3.319585 -0.046592
v -0.559253 2.921938 -0.819591
v -0.062021 3.197352 -0.285944
v -0.171158 3.029083 -0.567197
v -0.461947 3.029083 -0.366986
v -0.238147 3.197352 -0.164679
v -0.350746 3.137573 -0.516754
v -0.167260 3.274693 -0.250258
v -0.817923 2.843073 -0.309891
v -0.874331 2.843073 -0.002419
v -0.050593 3.319585 -0.010207
v -0.973689 2.921938 -0.179557
v -0.243941 3.197352 -0.158785
v -0.521632 3.029083 -0.271915
v -0.583855 3.029083 0.067252
v -0.284090 3.197352 0.060061
v -0.612049 3.137573 -0.113211
v -0.293805 3.274693 -0.054827
v -0.791760 2.843073 0.372035
v -0.022916 3.292956 0.045371
v -0.611269 2.843073 0.627269
v -0.041140 3.319585 0.032661
v -0.807404 2.921937 0.574533
v -0.280035 3.197352 0.070648
v -0.559897 3.029083 0.183304
v -0.356055 3.029083 0.471558
v -0.156571 3.197352 0.245239
v -0.507205 3.137573 0.362244
v -0.243031 3.274693 0.175430
v 0.015735 3.292956 0.049549
v -0.294500 2.843073 0.826790
v 0.013655 2.843073 0.879338
v -0.004463 3.319585 0.055762
v -0.162223 2.921937 0.980909
v -0.150604 3.197352 0.250958
v -0.260242 3.029083 0.530046
v 0.079678 3.029083 0.588011
v 0.068729 3.197352 0.288360
v -0.100418 3.137573 0.618465
v -0.046029 3.274693 0.299515
v 0.359730 2.843073 0.804679
v 0.049800 3.292956 0.028938
v 0.618814 2.843073 0.629761
v 0.036698 3.319585 0.046882
v 0.561841 2.921937 0.824707
v 0.069500 3.197352 0.286544
v 0.176066 3.029083 0.568782
v 0.468670 3.029083 0.371233
v 0.246725 3.197352 0.166892
v 0.356106 3.137573 0.519979
v 0.175060 3.274693 0.251820
v 0.825152 2.843073 0.317389
v 0.884364 2.843073 0.010445
v 0.060589 3.319585 0.010715
v 0.982100 2.921937 0.188482
v 0.252573 3.197352 0.161050
v 0.529219 3.029083 0.276710
v 0.594535 3.029083 -0.061875
v 0.294718 3.197352 -0.057420
v 0.621081 3.137573 0.118839
v 0.303384 3.274693 0.057552
v 0.068579 3.019649 -0.001045
v 1.044238 2.471593 -0.260217
v 0.049005 3.019649 -0.047780
v 0.887549 2.471593 -0.607307
v 0.067853 3.052088 -0.028354
v 1.109892 2.567667 -0.498768
v 0.362367 2.822080 -0.018402
v 0.723188 2.617092 -0.088254
v 0.546226 2.617092 -0.480250
v 0.255185 2.822080 -0.255828
v 0.701654 2.749256 -0.314474
v 0.342404 2.916298 -0.152296
v 0.003749 3.019649 -0.061737
v 0.554962 2.471593 -0.919362
v -0.058532 3.019649 0.001045
v 0.198603 2.471593 -1.053646
v 0.029345 3.052088 -0.064485
v 0.432493 2.567667 -1.134347
v 0.249375 2.822080 -0.264052
v 0.445198 2.617092 -0.572411
v 0.052105 2.617092 -0.720537
v -0.004267 2.822080 -0.359629
v 0.274552 2.749256 -0.715208
v 0.135564 2.916298 -0.346367
v -0.232594 2.471593 -1.044587
v -0.041770 3.019649 -0.044984
v -0.582998 2.471593 -0.895455
v -0.021941 3.052088 -0.063407
v -0.469667 2.567667 -1.115394
v -0.005610 2.822080 -0.357637
v -0.067628 2.617092 -0.719886
v -0.463366 2.617092 -0.551459
v -0.245303 2.822080 -0.255623
v -0.294262 2.749256 -0.703258
v -0.139905 2.916298 -0.340579
v -0.902186 2.471593 -0.569706
v -1.044159 2.471593 -0.216341
v -0.058897 3.052088 -0.025691
v -1.119774 2.567667 -0.451925
v -0.253650 2.822080 -0.249993
v -0.557694 2.617092 -0.452451
v -0.714303 2.617092 -0.062660
v -0.354701 2.822080 0.001518
v -0.704156 2.749256 -0.284939
v -0.338412 2.916298 -0.137993
v -1.036479 2.471593 0.250722
v -0.039348 3.019649 0.047376
v -0.882964 2.471593 0.599228
v -0.058018 3.052088 0.027779
v -1.104307 2.567667 0.488664
v -0.352429 2.822080 0.015140
v -0.713872 2.617091 0.081696
v -0.540495 2.617091 0.475291
v -0.247418 2.822080 0.253534
v -0.694403 2.749256 0.308104
v -0.333689 2.916298 0.149211
v 0.005779 3.019649 0.061746
v -0.553238 2.471593 0.914305
v -0.198120 2.471593 1.051836
v -0.019841 3.052088 0.064260
v -0.432737 2.567667 1.130399
v -0.241683 2.822080 0.261811
v -0.440312 2.617091 0.568370
v -0.048588 2.617091 0.720078
v 0.011075 2.822080 0.359699
v -0.270977 2.749256 0.712719
v -0.128629 2.916298 0.345161
v 0.233142 2.471593 1.046712
v 0.051449 3.019649 0.045410
v 0.584893 2.471593 0.900784
v 0.031452 3.052088 0.063651
v 0.469559 2.567667 1.119680
v 0.012437 2.822080 0.357719
v 0.071146 2.617091 0.720519
v 0.468405 2.617091 0.555711
v 0.253051 2.822080 0.257897
v 0.297922 2.749256 0.705960
v 0.146882 2.916298 0.341888
v 0.907040 2.471593 0.577963
v 1.052232 2.471593 0.225908
v 0.068752 3.052088 0.026273
v 1.125694 2.567667 0.462171
v 0.261449 2.822080 0.252343
v 0.563633 2.617091 0.457568
v 0.723792 2.617091 0.069223
v 0.364791 2.822080 0.001765
v 0.711617 2.749256 0.291400
v 0.347229 2.916298 0.141121
v 0.070878 2.550402 0.021832
v 1.169497 1.952187 0.106619
v 0.067563 2.550402 -0.033374
v 1.133220 1.952187 -0.307468
v 0.079977 2.585810 -0.006564
v 1.323152 2.057054 -0.115475
v 0.379810 2.298035 0.109882
v 0.776730 2.074285 0.168020
v 0.735760 2.074285 -0.299640
v 0.354995 2.298035 -0.173372
v 0.836114 2.218546 -0.072807
v 0.407522 2.400876 -0.035260
v 0.025970 2.550402 -0.064072
v 0.903092 1.952187 -0.748884
v -0.060832 2.550402 -0.021847
v 0.584375 1.952187 -1.015723
v 0.053331 2.585810 -0.057673
v 0.854438 2.057054 -1.014530
v 0.351975 2.298035 -0.183939
v 0.664907 2.074285 -0.431017
v 0.313335 2.074285 -0.725362
v 0.125125 2.298035 -0.373864
v 0.540589 2.218546 -0.639663
v 0.264403 2.400876 -0.309781
v 0.136869 1.952187 -1.161868
v -0.026966 2.550402 -0.063226
v -0.277907 1.952187 -1.134572
v 0.000106 2.585810 -0.075056
v -0.081843 2.057054 -1.320299
v 0.123022 2.298035 -0.372296
v 0.189746 2.074285 -0.767863
v -0.278692 2.074285 -0.737035
v -0.160703 2.298035 -0.353624
v -0.049738 2.218546 -0.832451
v -0.021485 2.400876 -0.403146
v -0.724205 1.952187 -0.914062
v -0.997886 1.952187 -0.601200
v -0.051568 2.585810 -0.049524
v -0.990843 2.057054 -0.871174
v -0.171334 2.298035 -0.350833
v -0.411573 2.074285 -0.669045
v -0.713466 2.074285 -0.323933
v -0.366129 2.298035 -0.128151
v -0.622864 2.218546 -0.549277
v -0.299043 2.400876 -0.266008
v -1.158384 1.952187 -0.117242
v -0.057773 2.550402 0.032802
v -1.125888 1.952187 0.297159
v -0.069942 2.585810 0.005880
v -1.314059 2.057054 0.103440
v -0.368700 2.298034 -0.113298
v -0.765073 2.074285 -0.175056
v -0.728373 2.074285 0.292959
v -0.346472 2.298034 0.170171
v -0.826653 2.218546 0.065219
v -0.397736 2.400876 0.031585
v -0.016463 2.550402 0.063878
v -0.899798 1.952187 0.740656
v -0.583529 1.952187 1.010393
v -0.043764 2.585810 0.057230
v -0.853570 2.057054 1.006736
v -0.343548 2.298034 0.180765
v -0.658722 2.074285 0.424977
v -0.309851 2.074285 0.722518
v -0.118440 2.298034 0.372753
v -0.536313 2.218546 0.634749
v -0.257128 2.400876 0.307401
v -0.137376 1.952187 1.160617
v 0.036479 2.550402 0.063515
v 0.277632 1.952187 1.137107
v 0.009300 2.585810 0.075098
v 0.079881 2.057054 1.321037
v -0.116323 2.298034 0.371204
v -0.186655 2.074285 0.766145
v 0.282045 2.074285 0.739594
v 0.167561 2.298034 0.355122
v 0.052230 2.218546 0.832916
v 0.027896 2.400876 0.403371
v 0.725923 1.952187 0.920679
v 1.002449 1.952187 0.610328
v 0.061205 2.585810 0.050039
v 0.992942 2.057054 0.880227
v 0.178216 2.298034 0.352428
v 0.415541 2.074285 0.672819
v 0.720571 2.074285 0.330477
v 0.375035 2.298034 0.131533
v 0.627916 2.218546 0.554985
v 0.306694 2.400876 0.268772
v 0.073987 2.089051 0.045616
v 1.311543 1.376047 0.485242
v 0.087363 2.089051 -0.018931
v 1.398742 1.376047 -0.002458
v 0.093297 2.131253 0.015779
v 1.557475 1.501037 0.277568
v 0.401996 1.788258 0.243110
v 0.840548 1.521574 0.433587
v 0.939029 1.521574 -0.117210
v 0.461644 1.788258 -0.090499
v 0.983856 1.693517 0.175007
v 0.479072 1.910833 0.084754
v 0.049069 2.089051 -0.067199
v 1.271425 1.376047 -0.581960
v -0.063943 2.089051 -0.045647
v 0.987828 1.376047 -0.988196
v 0.078556 2.131253 -0.051318
v 1.298163 1.501037 -0.902734
v 0.461459 1.788258 -0.103597
v 0.898419 1.521574 -0.290420
v 0.585589 1.521574 -0.738532
v 0.259607 1.788258 -0.392740
v 0.820359 1.693517 -0.569176
v 0.399892 1.910833 -0.275645
v 0.518481 1.376047 -1.295677
v -0.012097 2.089051 -0.082708
v 0.032784 1.376047 -1.393422
v 0.022733 2.131253 -0.087889
v 0.316185 1.501037 -1.546052
v 0.256699 1.788258 -0.391590
v 0.456634 1.521574 -0.825912
v -0.091901 1.521574 -0.936303
v -0.075539 1.788258 -0.458452
v 0.201219 1.693517 -0.974789
v 0.100050 1.910833 -0.472078
v -0.549340 1.376047 -1.278691
v -0.961625 1.376047 -1.003963
v -0.044668 2.131253 -0.074605
v -0.869460 1.501037 -1.312373
v -0.088638 1.788258 -0.458551
v -0.265950 1.521574 -0.899456
v -0.720735 1.521574 -0.596408
v -0.382086 1.788258 -0.263011
v -0.546332 1.693517 -0.827454
v -0.261980 1.910833 -0.400726
v -1.296968 1.376047 -0.497145
v -0.077441 2.089051 0.018179
v -1.388615 1.376047 -0.010261
v -0.083058 2.131253 -0.016584
v -1.544786 1.501037 -0.291725
v -0.389669 1.788258 -0.246723
v -0.826465 1.521574 -0.441194
v -0.929968 1.521574 0.108682
v -0.452360 1.788258 0.086328
v -0.972127 1.693516 -0.183933
v -0.468187 1.910833 -0.089077
v -0.039589 2.089051 0.066794
v -1.266592 1.376047 0.570378
v -0.986715 1.376047 0.979186
v -0.068930 2.131253 0.050645
v -1.296257 1.501037 0.890895
v -0.452295 1.788258 0.099427
v -0.890941 1.521574 0.282255
v -0.582214 1.521574 0.733203
v -0.253089 1.788258 0.390400
v -0.815428 1.693516 0.561711
v -0.392300 1.910833 0.272030
v -0.520193 1.376047 1.290937
v 0.021433 2.089051 0.082861
v -0.035409 1.376047 1.393111
v -0.013443 2.131253 0.087724
v -0.320190 1.501037 1.543147
v -0.250171 1.788258 0.389277
v -0.454061 1.521574 0.821756
v 0.093443 1.521574 0.937149
v 0.081443 1.788258 0.459168
v -0.200016 1.693516 0.972958
v -0.094263 1.910833 0.471192
v 0.547738 1.376047 1.283698
v 0.962514 1.376047 1.012743
v 0.054076 2.131253 0.075056
v 0.867537 1.501037 1.320300
v 0.094541 1.788258 0.459387
v 0.267821 1.521574 0.901892
v 0.725353 1.521574 0.603007
v 0.389761 1.788258 0.266533
v 0.548848 1.693516 0.832452
v 0.268403 1.910833 0.403146
v 0.063689 1.668229 0.065966
v 1.220300 0.906951 0.858766
v 0.095180 1.668229 0.003023
v 1.443931 0.906951 0.379384
v 0.091792 1.713289 0.040467
v 1.530998 1.040403 0.711853
v 0.348054 1.347071 0.359653
v 0.748417 1.062331 0.676393
v 1.000980 1.062331 0.134989
v 0.501028 1.347071 0.031734
v 0.967162 1.245915 0.448825
v 0.470987 1.477945 0.217360
v 0.068890 1.668229 -0.057281
v 1.471351 0.906951 -0.253517
v -0.053638 1.668229 -0.066011
v 1.290019 0.906951 -0.750444
v 0.094967 1.713289 -0.032813
v 1.586846 1.040403 -0.577210
v 0.504427 1.347071 0.018167
v 1.006539 1.062331 -0.054881
v 0.806515 1.062331 -0.603033
v 0.375362 1.347071 -0.335526
v 1.002374 1.245915 -0.363932
v 0.488040 1.477945 -0.176248
v 0.889940 0.906951 -1.196363
v 0.010020 1.668229 -0.090048
v 0.415516 0.906951 -1.430328
v 0.047383 1.713289 -0.085849
v 0.749793 1.040403 -1.510171
v 0.372046 1.347071 -0.335136
v 0.697386 1.062331 -0.728542
v 0.161581 1.062331 -0.992776
v 0.047518 1.347071 -0.495178
v 0.474611 1.245915 -0.952166
v 0.232450 1.477945 -0.461122
v -0.216642 0.906951 -1.471454
v -0.717381 0.906951 -1.300931
v -0.025811 1.713289 -0.090611
v -0.537757 1.040403 -1.593935
v 0.034028 1.347071 -0.498870
v -0.028124 1.062331 -1.002448
v -0.580480 1.062331 -0.814347
v -0.322378 1.347071 -0.377499
v -0.337193 1.245915 -1.004980
v -0.160696 1.477945 -0.486699
v -1.202321 0.906951 -0.869821
v -0.085057 1.668229 -0.003845
v -1.430317 0.906951 -0.392500
v -0.081328 1.713289 -0.041257
v -1.514346 1.040403 -0.725750
v -0.334666 1.347071 -0.362769
v -0.732121 1.062331 -0.683149
v -0.989615 1.062331 -0.144073
v -0.490626 1.347071 -0.036259
v -0.952934 1.245915 -0.457587
v -0.458892 1.477945 -0.221604
v -0.059319 1.668229 0.056696
v -1.463512 0.906951 0.240124
v -1.286723 0.906951 0.738685
v -0.085171 1.713289 0.031991
v -1.581957 1.040403 0.562750
v -0.494149 1.347071 -0.022724
v -0.996907 1.062331 0.045739
v -0.801894 1.062331 0.595693
v -0.368317 1.347071 0.332132
v -0.995563 1.245915 0.354815
v -0.479537 1.477945 0.171832
v -0.890731 0.906951 1.188237
v -0.000751 1.668229 0.089999
v -0.418461 0.906951 1.426522
v -0.038073 1.713289 0.085459
v -0.753454 1.040403 1.503311
v -0.364998 1.347071 0.331772
v -0.693915 1.062331 0.722193
v -0.160544 1.062331 0.991306
v -0.041944 1.347071 0.494770
v -0.473190 1.245915 0.947841
v -0.226558 1.477945 0.459028
v 0.213295 0.906951 1.473416
v 0.715569 0.906951 1.307470
v 0.035074 1.713289 0.090889
v 0.533279 1.040403 1.598823
v -0.028489 1.347071 0.498585
v 0.029065 1.062331 1.002708
v 0.583115 1.062331 0.819656
v 0.329010 1.347071 0.380471
v 0.338098 1.245915 1.008061
v 0.166339 1.477945 0.488192
v 0.090753 1.330170 0.039186
v 1.640033 0.477568 0.296217
v 0.092913 1.330170 -0.039609
v 1.640033 0.477568 -0.296217
v 0.107204 1.380635 0.000000
v 1.885817 0.627029 0.000000
v 0.518425 0.970485 0.202626
v 1.074743 0.651587 0.334541
v 1.074743 0.651587 -0.334541
v 0.518425 0.970485 -0.202626
v 1.189012 0.857194 0.000000
v 0.575824 1.117058 0.000000
v 0.037678 1.330170 -0.088367
v 1.368201 0.477568 -0.951566
v -0.090815 1.330170 -0.039213
v 0.948875 0.477568 -1.370069
v 0.075730 1.380635 -0.075879
v 1.332163 0.627029 -1.334784
v 0.515451 0.970485 -0.218005
v 0.990486 0.651587 -0.529883
v 0.527935 0.651587 -0.991526
v 0.216992 0.970485 -0.515879
v 0.839932 0.857194 -0.841584
v 0.406769 1.117058 -0.407569
v 0.331682 0.477568 -1.633230
v -0.037586 1.330170 -0.093750
v -0.260614 0.477568 -1.646066
v 0.002323 1.380635 -0.107179
v 0.040859 0.627029 -1.885375
v 0.213811 0.970485 -0.513913
v 0.357749 0.651587 -1.067242
v -0.311177 0.651587 -1.081739
v -0.191346 0.970485 -0.522694
v 0.025762 0.857194 -1.188733
v 0.012476 1.117058 -0.575689
v -0.921699 0.477568 -1.388497
v -1.349188 0.477568 -0.978337
v -0.074220 1.380635 -0.077356
v -1.305607 0.627029 -1.360770
v -0.206786 0.970485 -0.520054
v -0.508299 0.651587 -1.001735
v -0.979855 0.651587 -0.549294
v -0.511056 0.970485 -0.228118
v -0.823188 0.857194 -0.857969
v -0.398660 1.117058 -0.415504
v -1.637261 0.477567 -0.311173
v -0.093271 1.330169 0.038759
v -1.642668 0.477567 0.281237
v -0.107199 1.380634 -0.000978
v -1.885738 0.627028 -0.017211
v -0.516554 0.970485 -0.207349
v -1.071645 0.651587 -0.344336
v -1.077751 0.651587 0.324719
v -0.520253 0.970485 0.197886
v -1.188962 0.857194 -0.010851
v -0.575800 1.117058 -0.005255
v -0.038483 1.330169 0.088019
v -1.376828 0.477567 0.939039
v -0.961339 0.477567 1.361352
v -0.076419 1.380634 0.075185
v -1.344289 0.627028 1.322570
v -0.517419 0.970485 0.213292
v -0.995281 0.651587 0.520822
v -0.536962 0.651587 0.986667
v -0.221691 0.970485 0.513877
v -0.847577 0.857194 0.833883
v -0.410471 1.117058 0.403840
v -0.346573 0.477567 1.630134
v 0.036729 1.330169 0.094089
v 0.245581 0.477567 1.648376
v -0.003301 1.380634 0.107153
v -0.058064 0.627028 1.884923
v -0.218492 0.970485 0.511940
v -0.367474 0.651587 1.063933
v 0.301292 0.651587 1.084534
v 0.186568 0.970485 0.524418
v -0.036609 0.857194 1.188448
v -0.017730 1.117058 0.575551
v 0.908988 0.477567 1.396851
v 1.340203 0.477567 0.990609
v 0.073511 1.380634 0.078030
v 1.293134 0.627028 1.372629
v 0.202031 0.970485 0.521919
v 0.499135 0.651587 1.006332
v 0.974801 0.651587 0.558214
v 0.508953 0.970485 0.232773
v 0.815324 0.857194 0.865446
v 0.394851 1.117058 0.419125
v -0.000000 0.000083 -0.134979
v -0.000000 5.155241 -0.030541
v 0.095445 0.000083 -0.095445
v 0.021596 5.155241 -0.021596
v 0.134979 0.000083 0.000000
v 0.030541 5.155241 0.000000
v 0.095445 0.000083 0.095445
v 0.021596 5.155241 0.021596
v -0.000000 0.000083 0.134979
v -0.000000 5.155241 0.030541
v -0.095445 0.000083 0.095445
v -0.021596 5.155241 0.021596
v -0.134979 0.000083 -0.000000
v -0.030541 5.155241 -0.000000
v -0.095445 0.000083 -0.095445
v -0.021596 5.155241 -0.021596
# 785 vertices, 0 vertices normals

f 770 771 773
f 770 773 772
f 772 773 775
f 772 775 774
f 774 775 777
f 774 777 776
f 776 777 779
f 776 779 778
f 778 779 781
f 778 781 780
f 780 781 783
f 780 783 782
f 782 783 785
f 782 785 784
f 784 785 771
f 784 771 770
f 1 4 9
f 1 9 3
f 4 5 8
f 4 8 9
f 3 9 7
f 3 7 2
f 9 8 6
f 9 6 7
f 2 13 18
f 2 18 12
f 13 14 17
f 13 17 18
f 12 18 16
f 12 16 10
f 18 17 15
f 18 15 16
f 10 21 26
f 10 26 20
f 21 22 25
f 21 25 26
f 20 26 24
f 20 24 19
f 26 25 23
f 26 23 24
f 19 28 33
f 19 33 27
f 28 29 32
f 28 32 33
f 27 33 31
f 27 31 11
f 33 32 30
f 33 30 31
f 11 36 41
f 11 41 35
f 36 37 40
f 36 40 41
f 35 41 39
f 35 39 34
f 41 40 38
f 41 38 39
f 34 44 49
f 34 49 43
f 44 45 48
f 44 48 49
f 43 49 47
f 43 47 42
f 49 48 46
f 49 46 47
f 42 52 57
f 42 57 51
f 52 53 56
f 52 56 57
f 51 57 55
f 51 55 50
f 57 56 54
f 57 54 55
f 50 59 64
f 50 64 58
f 59 60 63
f 59 63 64
f 58 64 62
f 58 62 1
f 64 63 61
f 64 61 62
f 10 20 65
f 2 12 65
f 42 51 65
f 1 3 65
f 34 43 65
f 50 58 65
f 12 10 65
f 3 2 65
f 20 19 65
f 51 50 65
f 35 34 65
f 43 42 65
f 11 35 65
f 19 27 65
f 27 11 65
f 58 1 65
f 76 71 69
f 76 69 74
f 73 67 71
f 73 71 76
f 66 72 77
f 66 77 70
f 72 73 76
f 72 76 77
f 70 77 75
f 70 75 68
f 77 76 74
f 77 74 75
f 88 83 81
f 88 81 86
f 85 79 83
f 85 83 88
f 68 84 89
f 68 89 82
f 84 85 88
f 84 88 89
f 82 89 87
f 82 87 78
f 89 88 86
f 89 86 87
f 99 94 92
f 99 92 97
f 96 90 94
f 96 94 99
f 78 95 100
f 78 100 93
f 95 96 99
f 95 99 100
f 93 100 98
f 93 98 91
f 100 99 97
f 100 97 98
f 109 104 102
f 109 102 107
f 106 101 104
f 106 104 109
f 91 105 110
f 91 110 103
f 105 106 109
f 105 109 110
f 103 110 108
f 103 108 80
f 110 109 107
f 110 107 108
f 120 115 113
f 120 113 118
f 117 111 115
f 117 115 120
f 80 116 121
f 80 121 114
f 116 117 120
f 116 120 121
f 114 121 119
f 114 119 112
f 121 120 118
f 121 118 119
f 131 126 124
f 131 124 129
f 128 123 126
f 128 126 131
f 112 127 132
f 112 132 125
f 127 128 131
f 127 131 132
f 125 132 130
f 125 130 122
f 132 131 129
f 132 129 130
f 142 137 135
f 142 135 140
f 139 133 137
f 139 137 142
f 122 138 143
f 122 143 136
f 138 139 142
f 138 142 143
f 136 143 141
f 136 141 134
f 143 142 140
f 143 140 141
f 152 147 145
f 152 145 150
f 149 144 147
f 149 147 152
f 134 148 153
f 134 153 146
f 148 149 152
f 148 152 153
f 146 153 151
f 146 151 66
f 153 152 150
f 153 150 151
f 164 159 157
f 164 157 162
f 161 155 159
f 161 159 164
f 154 160 165
f 154 165 158
f 160 161 164
f 160 164 165
f 158 165 163
f 158 163 156
f 165 164 162
f 165 162 163
f 176 171 169
f 176 169 174
f 173 167 171
f 173 171 176
f 156 172 177
f 156 177 170
f 172 173 176
f 172 176 177
f 170 177 175
f 170 175 166
f 177 176 174
f 177 174 175
f 187 182 180
f 187 180 185
f 184 178 182
f 184 182 187
f 166 183 188
f 166 188 181
f 183 184 187
f 183 187 188
f 181 188 186
f 181 186 179
f 188 187 185
f 188 185 186
f 197 192 190
f 197 190 195
f 194 189 192
f 194 192 197
f 179 193 198
f 179 198 191
f 193 194 197
f 193 197 198
f 191 198 196
f 191 196 168
f 198 197 195
f 198 195 196
f 208 203 201
f 208 201 206
f 205 199 203
f 205 203 208
f 168 204 209
f 168 209 202
f 204 205 208
f 204 208 209
f 202 209 207
f 202 207 200
f 209 208 206
f 209 206 207
f 219 214 212
f 219 212 217
f 216 211 214
f 216 214 219
f 200 215 220
f 200 220 213
f 215 216 219
f 215 219 220
f 213 220 218
f 213 218 210
f 220 219 217
f 220 217 218
f 230 225 223
f 230 223 228
f 227 221 225
f 227 225 230
f 210 226 231
f 210 231 224
f 226 227 230
f 226 230 231
f 224 231 229
f 224 229 222
f 231 230 228
f 231 228 229
f 240 235 233
f 240 233 238
f 237 232 235
f 237 235 240
f 222 236 241
f 222 241 234
f 236 237 240
f 236 240 241
f 234 241 239
f 234 239 154
f 241 240 238
f 241 238 239
f 252 247 245
f 252 245 250
f 249 243 247
f 249 247 252
f 242 248 253
f 242 253 246
f 248 249 252
f 248 252 253
f 246 253 251
f 246 251 244
f 253 252 250
f 253 250 251
f 264 259 257
f 264 257 262
f 261 255 259
f 261 259 264
f 244 260 265
f 244 265 258
f 260 261 264
f 260 264 265
f 258 265 263
f 258 263 254
f 265 264 262
f 265 262 263
f 275 270 268
f 275 268 273
f 272 266 270
f 272 270 275
f 254 271 276
f 254 276 269
f 271 272 275
f 271 275 276
f 269 276 274
f 269 274 267
f 276 275 273
f 276 273 274
f 285 280 278
f 285 278 283
f 282 277 280
f 282 280 285
f 267 281 286
f 267 286 279
f 281 282 285
f 281 285 286
f 279 286 284
f 279 284 256
f 286 285 283
f 286 283 284
f 296 291 289
f 296 289 294
f 293 287 291
f 293 291 296
f 256 292 297
f 256 297 290
f 292 293 296
f 292 296 297
f 290 297 295
f 290 295 288
f 297 296 294
f 297 294 295
f 307 302 300
f 307 300 305
f 304 299 302
f 304 302 307
f 288 303 308
f 288 308 301
f 303 304 307
f 303 307 308
f 301 308 306
f 301 306 298
f 308 307 305
f 308 305 306
f 318 313 311
f 318 311 316
f 315 309 313
f 315 313 318
f 298 314 319
f 298 319 312
f 314 315 318
f 314 318 319
f 312 319 317
f 312 317 310
f 319 318 316
f 319 316 317
f 328 323 321
f 328 321 326
f 325 320 323
f 325 323 328
f 310 324 329
f 310 329 322
f 324 325 328
f 324 328 329
f 322 329 327
f 322 327 242
f 329 328 326
f 329 326 327
f 340 335 333
f 340 333 338
f 337 331 335
f 337 335 340
f 330 336 341
f 330 341 334
f 336 337 340
f 336 340 341
f 334 341 339
f 334 339 332
f 341 340 338
f 341 338 339
f 352 347 345
f 352 345 350
f 349 343 347
f 349 347 352
f 332 348 353
f 332 353 346
f 348 349 352
f 348 352 353
f 346 353 351
f 346 351 342
f 353 352 350
f 353 350 351
f 363 358 356
f 363 356 361
f 360 354 358
f 360 358 363
f 342 359 364
f 342 364 357
f 359 360 363
f 359 363 364
f 357 364 362
f 357 362 355
f 364 363 361
f 364 361 362
f 373 368 366
f 373 366 371
f 370 365 368
f 370 368 373
f 355 369 374
f 355 374 367
f 369 370 373
f 369 373 374
f 367 374 372
f 367 372 344
f 374 373 371
f 374 371 372
f 384 379 377
f 384 377 382
f 381 375 379
f 381 379 384
f 344 380 385
f 344 385 378
f 380 381 384
f 380 384 385
f 378 385 383
f 378 383 376
f 385 384 382
f 385 382 383
f 395 390 388
f 395 388 393
f 392 387 390
f 392 390 395
f 376 391 396
f 376 396 389
f 391 392 395
f 391 395 396
f 389 396 394
f 389 394 386
f 396 395 393
f 396 393 394
f 406 401 399
f 406 399 404
f 403 397 401
f 403 401 406
f 386 402 407
f 386 407 400
f 402 403 406
f 402 406 407
f 400 407 405
f 400 405 398
f 407 406 404
f 407 404 405
f 416 411 409
f 416 409 414
f 413 408 411
f 413 411 416
f 398 412 417
f 398 417 410
f 412 413 416
f 412 416 417
f 410 417 415
f 410 415 330
f 417 416 414
f 417 414 415
f 428 423 421
f 428 421 426
f 425 419 423
f 425 423 428
f 418 424 429
f 418 429 422
f 424 425 428
f 424 428 429
f 422 429 427
f 422 427 420
f 429 428 426
f 429 426 427
f 440 435 433
f 440 433 438
f 437 431 435
f 437 435 440
f 420 436 441
f 420 441 434
f 436 437 440
f 436 440 441
f 434 441 439
f 434 439 430
f 441 440 438
f 441 438 439
f 451 446 444
f 451 444 449
f 448 442 446
f 448 446 451
f 430 447 452
f 430 452 445
f 447 448 451
f 447 451 452
f 445 452 450
f 445 450 443
f 452 451 449
f 452 449 450
f 461 456 454
f 461 454 459
f 458 453 456
f 458 456 461
f 443 457 462
f 443 462 455
f 457 458 461
f 457 461 462
f 455 462 460
f 455 460 432
f 462 461 459
f 462 459 460
f 472 467 465
f 472 465 470
f 469 463 467
f 469 467 472
f 432 468 473
f 432 473 466
f 468 469 472
f 468 472 473
f 466 473 471
f 466 471 464
f 473 472 470
f 473 470 471
f 483 478 476
f 483 476 481
f 480 475 478
f 480 478 483
f 464 479 484
f 464 484 477
f 479 480 483
f 479 483 484
f 477 484 482
f 477 482 474
f 484 483 481
f 484 481 482
f 494 489 487
f 494 487 492
f 491 485 489
f 491 489 494
f 474 490 495
f 474 495 488
f 490 491 494
f 490 494 495
f 488 495 493
f 488 493 486
f 495 494 492
f 495 492 493
f 504 499 497
f 504 497 502
f 501 496 499
f 501 499 504
f 486 500 505
f 486 505 498
f 500 501 504
f 500 504 505
f 498 505 503
f 498 503 418
f 505 504 502
f 505 502 503
f 516 511 509
f 516 509 514
f 513 507 511
f 513 511 516
f 506 512 517
f 506 517 510
f 512 513 516
f 512 516 517
f 510 517 515
f 510 515 508
f 517 516 514
f 517 514 515
f 528 523 521
f 528 521 526
f 525 519 523
f 525 523 528
f 508 524 529
f 508 529 522
f 524 525 528
f 524 528 529
f 522 529 527
f 522 527 518
f 529 528 526
f 529 526 527
f 539 534 532
f 539 532 537
f 536 530 534
f 536 534 539
f 518 535 540
f 518 540 533
f 535 536 539
f 535 539 540
f 533 540 538
f 533 538 531
f 540 539 537
f 540 537 538
f 549 544 542
f 549 542 547
f 546 541 544
f 546 544 549
f 531 545 550
f 531 550 543
f 545 546 549
f 545 549 550
f 543 550 548
f 543 548 520
f 550 549 547
f 550 547 548
f 560 555 553
f 560 553 558
f 557 551 555
f 557 555 560
f 520 556 561
f 520 561 554
f 556 557 560
f 556 560 561
f 554 561 559
f 554 559 552
f 561 560 558
f 561 558 559
f 571 566 564
f 571 564 569
f 568 563 566
f 568 566 571
f 552 567 572
f 552 572 565
f 567 568 571
f 567 571 572
f 565 572 570
f 565 570 562
f 572 571 569
f 572 569 570
f 582 577 575
f 582 575 580
f 579 573 577
f 579 577 582
f 562 578 583
f 562 583 576
f 578 579 582
f 578 582 583
f 576 583 581
f 576 581 574
f 583 582 580
f 583 580 581
f 592 587 585
f 592 585 590
f 589 584 587
f 589 587 592
f 574 588 593
f 574 593 586
f 588 589 592
f 588 592 593
f 586 593 591
f 586 591 506
f 593 592 590
f 593 590 591
f 604 599 597
f 604 597 602
f 601 595 599
f 601 599 604
f 594 600 605
f 594 605 598
f 600 601 604
f 600 604 605
f 598 605 603
f 598 603 596
f 605 604 602
f 605 602 603
f 616 611 609
f 616 609 614
f 613 607 611
f 613 611 616
f 596 612 617
f 596 617 610
f 612 613 616
f 612 616 617
f 610 617 615
f 610 615 606
f 617 616 614
f 617 614 615
f 627 622 620
f 627 620 625
f 624 618 622
f 624 622 627
f 606 623 628
f 606 628 621
f 623 624 627
f 623 627 628
f 621 628 626
f 621 626 619
f 628 627 625
f 628 625 626
f 637 632 630
f 637 630 635
f 634 629 632
f 634 632 637
f 619 633 638
f 619 638 631
f 633 634 637
f 633 637 638
f 631 638 636
f 631 636 608
f 638 637 635
f 638 635 636
f 648 643 641
f 648 641 646
f 645 639 643
f 645 643 648
f 608 644 649
f 608 649 642
f 644 645 648
f 644 648 649
f 642 649 647
f 642 647 640
f 649 648 646
f 649 646 647
f 659 654 652
f 659 652 657
f 656 651 654
f 656 654 659
f 640 655 660
f 640 660 653
f 655 656 659
f 655 659 660
f 653 660 658
f 653 658 650
f 660 659 657
f 660 657 658
f 670 665 663
f 670 663 668
f 667 661 665
f 667 665 670
f 650 666 671
f 650 671 664
f 666 667 670
f 666 670 671
f 664 671 669
f 664 669 662
f 671 670 668
f 671 668 669
f 680 675 673
f 680 673 678
f 677 672 675
f 677 675 680
f 662 676 681
f 662 681 674
f 676 677 680
f 676 680 681
f 674 681 679
f 674 679 594
f 681 680 678
f 681 678 679
f 692 687 685
f 692 685 690
f 689 683 687
f 689 687 692
f 682 688 693
f 682 693 686
f 688 689 692
f 688 692 693
f 686 693 691
f 686 691 684
f 693 692 690
f 693 690 691
f 704 699 697
f 704 697 702
f 701 695 699
f 701 699 704
f 684 700 705
f 684 705 698
f 700 701 704
f 700 704 705
f 698 705 703
f 698 703 694
f 705 704 702
f 705 702 703
f 715 710 708
f 715 708 713
f 712 706 710
f 712 710 715
f 694 711 716
f 694 716 709
f 711 712 715
f 711 715 716
f 709 716 714
f 709 714 707
f 716 715 713
f 716 713 714
f 725 720 718
f 725 718 723
f 722 717 720
f 722 720 725
f 707 721 726
f 707 726 719
f 721 722 725
f 721 725 726
f 719 726 724
f 719 724 696
f 726 725 723
f 726 723 724
f 736 731 729
f 736 729 734
f 733 727 731
f 733 731 736
f 696 732 737
f 696 737 730
f 732 733 736
f 732 736 737
f 730 737 735
f 730 735 728
f 737 736 734
f 737 734 735
f 747 742 740
f 747 740 745
f 744 739 742
f 744 742 747
f 728 743 748
f 728 748 741
f 743 744 747
f 743 747 748
f 741 748 746
f 741 746 738
f 748 747 745
f 748 745 746
f 758 753 751
f 758 751 756
f 755 749 753
f 755 753 758
f 738 754 759
f 738 759 752
f 754 755 758
f 754 758 759
f 752 759 757
f 752 757 750
f 759 758 756
f 759 756 757
f 768 763 761
f 768 761 766
f 765 760 763
f 765 763 768
f 750 764 769
f 750 769 762
f 764 765 768
f 764 768 769
f 762 769 767
f 762 767 682
f 769 768 766
f 769 766 767
# 864 faces, 0 coords texture

# End of File
