####
#
# OBJ File Generated by Meshlab
#
####
# Object rock03.obj
#
# Vertices: 98
# Faces: 192
#
####
v -8.620000 -8.391800 5.900800
v -7.742900 -6.932900 9.667800
v -12.001800 -5.684900 8.269600
v -13.912900 -6.788300 5.326000
v -0.770600 -9.062700 6.103300
v -0.952600 -7.563800 10.108600
v 7.126400 -8.226800 5.227700
v 5.925700 -6.936000 9.015000
v 12.815100 -7.096000 4.510400
v 10.508900 -6.182800 7.515100
v -9.409100 -9.062500 0.250800
v -14.905000 -7.137100 0.316900
v -0.781300 -9.612000 0.116200
v 8.077700 -8.685500 -0.108000
v 14.314600 -7.433500 -0.286400
v -9.243100 -8.432000 -5.456500
v -14.431400 -6.827000 -4.742700
v -1.122900 -8.931200 -5.920600
v 7.482700 -8.332200 -5.563900
v 13.620200 -6.681400 -4.976800
v -8.792800 -6.906700 -9.330300
v -12.988000 -5.795800 -7.926300
v -1.589800 -7.135200 -9.795800
v 6.335100 -6.883400 -9.321000
v 11.771600 -6.074400 -8.167900
v -8.486300 7.585500 5.645000
v -13.737800 5.758600 5.107600
v -11.935100 4.683400 8.036000
v -7.594900 5.670000 9.115900
v -0.777300 8.572600 5.945400
v -0.933700 6.240500 9.499500
v 7.097900 7.762800 5.144300
v 5.780900 5.977800 8.692400
v 12.545000 6.065100 4.261500
v 10.372500 5.124200 7.244300
v -9.392900 8.842200 0.260200
v -14.793400 6.432400 0.321400
v -0.775400 9.612000 0.088000
v 8.087700 8.710400 -0.088000
v 14.221300 6.648500 -0.249800
v -9.221100 8.173700 -5.462100
v -14.320600 6.026800 -4.727700
v -1.100400 8.622000 -5.791700
v 7.482800 8.045300 -5.533000
v 13.520400 6.068200 -4.977000
v -8.819300 6.291200 -9.289500
v -13.218900 5.521800 -8.206800
v -1.536400 6.422400 -9.702800
v 6.316700 6.241800 -9.304600
v 11.729100 5.303000 -8.061000
v -8.510200 -4.249200 11.794700
v -13.620700 -3.537500 9.471800
v -1.176300 -4.658700 12.271900
v 6.255400 -4.398200 10.907800
v 11.683900 -3.823500 8.164300
v -8.947600 -0.735200 11.848400
v -14.491200 -0.554700 9.807900
v -1.288400 -0.544300 13.641200
v 6.626900 -0.432900 11.752500
v 12.525200 -0.368800 8.947600
v -8.319500 2.980700 10.900700
v -13.474500 2.588200 9.122900
v -1.161000 3.420600 11.967200
v 6.255600 3.458600 10.804800
v 11.946400 3.215500 8.578600
v 15.943200 -4.467900 4.848700
v 17.739700 -4.368300 -0.487200
v 17.313200 -4.381300 -5.611000
v 13.584900 -3.787300 -9.149600
v 16.694599 -0.468600 4.760100
v 19.326000 -0.734200 -0.575300
v 18.355801 -0.389800 -5.687100
v 14.570500 -0.345000 -9.795500
v 15.523100 3.286900 4.495100
v 17.643101 3.388200 -0.437200
v 17.097200 3.165400 -5.540200
v 13.658400 3.075700 -9.260100
v 6.987500 -4.278300 -11.481900
v -1.930500 -4.549600 -12.330000
v -9.894400 -4.432800 -11.717400
v -14.580000 -3.676700 -9.079900
v 7.538800 -0.486200 -12.308100
v -2.056200 -0.546000 -13.641200
v -10.439300 -0.459100 -12.205300
v -15.187600 -0.472900 -9.575800
v 7.055700 3.438700 -11.526500
v -1.895900 3.663900 -12.489300
v -9.819300 3.428400 -11.487800
v -14.517400 3.063300 -9.122400
v -17.289600 -4.184400 -5.227100
v -18.306999 -4.497500 0.318900
v -17.113501 -4.261900 5.954500
v -18.565599 -0.446300 -5.640600
v -19.326000 -0.539900 0.297700
v -17.655100 -0.666800 5.966900
v -17.294600 3.377400 -5.214000
v -18.333000 3.597200 0.320400
v -16.400299 2.983900 5.493100
# 98 vertices, 0 vertices normals

f 1 2 3
f 1 3 4
f 5 6 2
f 5 2 1
f 7 8 6
f 7 6 5
f 9 10 8
f 9 8 7
f 11 1 4
f 11 4 12
f 13 5 1
f 13 1 11
f 14 7 5
f 14 5 13
f 15 9 7
f 15 7 14
f 16 11 12
f 16 12 17
f 18 13 11
f 18 11 16
f 19 14 13
f 19 13 18
f 20 15 14
f 20 14 19
f 21 16 17
f 21 17 22
f 23 18 16
f 23 16 21
f 24 19 18
f 24 18 23
f 25 20 19
f 25 19 24
f 26 27 28
f 26 28 29
f 30 26 29
f 30 29 31
f 32 30 31
f 32 31 33
f 34 32 33
f 34 33 35
f 36 37 27
f 36 27 26
f 38 36 26
f 38 26 30
f 39 38 30
f 39 30 32
f 40 39 32
f 40 32 34
f 41 42 37
f 41 37 36
f 43 41 36
f 43 36 38
f 44 43 38
f 44 38 39
f 45 44 39
f 45 39 40
f 46 47 42
f 46 42 41
f 48 46 41
f 48 41 43
f 49 48 43
f 49 43 44
f 50 49 44
f 50 44 45
f 51 52 3
f 51 3 2
f 53 51 2
f 53 2 6
f 54 53 6
f 54 6 8
f 55 54 8
f 55 8 10
f 56 57 52
f 56 52 51
f 58 56 51
f 58 51 53
f 59 58 53
f 59 53 54
f 60 59 54
f 60 54 55
f 61 62 57
f 61 57 56
f 63 61 56
f 63 56 58
f 64 63 58
f 64 58 59
f 65 64 59
f 65 59 60
f 29 28 62
f 29 62 61
f 31 29 61
f 31 61 63
f 33 31 63
f 33 63 64
f 35 33 64
f 35 64 65
f 66 55 10
f 66 10 9
f 67 66 9
f 67 9 15
f 68 67 15
f 68 15 20
f 69 68 20
f 69 20 25
f 70 60 55
f 70 55 66
f 71 70 66
f 71 66 67
f 72 71 67
f 72 67 68
f 73 72 68
f 73 68 69
f 74 65 60
f 74 60 70
f 75 74 70
f 75 70 71
f 76 75 71
f 76 71 72
f 77 76 72
f 77 72 73
f 34 35 65
f 34 65 74
f 40 34 74
f 40 74 75
f 45 40 75
f 45 75 76
f 50 45 76
f 50 76 77
f 78 69 25
f 78 25 24
f 79 78 24
f 79 24 23
f 80 79 23
f 80 23 21
f 81 80 21
f 81 21 22
f 82 73 69
f 82 69 78
f 83 82 78
f 83 78 79
f 84 83 79
f 84 79 80
f 85 84 80
f 85 80 81
f 86 77 73
f 86 73 82
f 87 86 82
f 87 82 83
f 88 87 83
f 88 83 84
f 89 88 84
f 89 84 85
f 49 50 77
f 49 77 86
f 48 49 86
f 48 86 87
f 46 48 87
f 46 87 88
f 47 46 88
f 47 88 89
f 90 81 22
f 90 22 17
f 91 90 17
f 91 17 12
f 92 91 12
f 92 12 4
f 52 92 4
f 52 4 3
f 93 85 81
f 93 81 90
f 94 93 90
f 94 90 91
f 95 94 91
f 95 91 92
f 57 95 92
f 57 92 52
f 96 89 85
f 96 85 93
f 97 96 93
f 97 93 94
f 98 97 94
f 98 94 95
f 62 98 95
f 62 95 57
f 42 47 89
f 42 89 96
f 37 42 96
f 37 96 97
f 27 37 97
f 27 97 98
f 28 27 98
f 28 98 62
# 192 faces, 0 coords texture

# End of File
