v     -0.2230156     -0.1526648     -0.2171117
v     -0.2003234     -0.2501242     -0.1793672
v     -0.3105092     -0.2139501     -0.1470791
v     -0.3599529     -0.1377936     -0.1756261
v     -0.0199369     -0.1579039     -0.2344691
v     -0.0246456     -0.2615285     -0.1956897
v      0.1843734     -0.1352504     -0.2128428
v      0.1533090     -0.2332350     -0.1794474
v      0.3315508     -0.1166925     -0.1835869
v      0.2718850     -0.1944298     -0.1599607
v     -0.2434311     -0.0064887     -0.2344639
v     -0.3856204     -0.0081988     -0.1846502
v     -0.0202137     -0.0030063     -0.2486805
v      0.2089853      0.0027942     -0.2247102
v      0.3703456      0.0074097     -0.1923186
v     -0.2391364      0.1411699     -0.2181517
v     -0.3733675      0.1227026     -0.1766273
v     -0.0290515      0.1531771     -0.2310670
v      0.1935915      0.1439486     -0.2155697
v      0.3523802      0.1287592     -0.1728604
v     -0.2274863      0.2413924     -0.1786893
v     -0.3360240      0.2050683     -0.1499483
v     -0.0411311      0.2534358     -0.1846011
v      0.1639010      0.2411518     -0.1780865
v      0.3045535      0.2113189     -0.1571562
v     -0.2195566     -0.1460468      0.1962512
v     -0.3554227     -0.1321432      0.1489858
v     -0.3087835     -0.2079064      0.1211684
v     -0.1964944     -0.2358455      0.1466936
v     -0.0201102     -0.1538187      0.2217893
v     -0.0241566     -0.2457699      0.1614535
v      0.1836360     -0.1330927      0.2008382
v      0.1495628     -0.2248888      0.1546569
v      0.3245628     -0.1102530      0.1569156
v      0.2683561     -0.1874237      0.1325727
v     -0.2430120     -0.0067319      0.2287644
v     -0.3827331     -0.0083152      0.1664183
v     -0.0200611     -0.0022767      0.2486805
v      0.2092440      0.0022767      0.2253544
v      0.3679318      0.0064628      0.1720092
v     -0.2385672      0.1413148      0.2114690
v     -0.3705009      0.1223145      0.1559247
v     -0.0284694      0.1498422      0.2230674
v      0.1935941      0.1431491      0.2081471
v      0.3497982      0.1287644      0.1569958
v     -0.2281719      0.2403369      0.1627652
v     -0.3419978      0.2123254      0.1428594
v     -0.0397496      0.2510297      0.1661596
v      0.1634249      0.2407275      0.1614871
v      0.3034539      0.2085532      0.1371986
v     -0.2201749     -0.3051511     -0.1099348
v     -0.3523931     -0.2450533     -0.0915218
v     -0.0304331     -0.3174972     -0.1205293
v      0.1618390     -0.2822053     -0.1137897
v      0.3022845     -0.2112258     -0.0989211
v     -0.2314913     -0.3065404     -0.0190210
v     -0.3749146     -0.2537488     -0.0143511
v     -0.0333333     -0.3529235     -0.0140821
v      0.1714504     -0.3040593     -0.0111999
v      0.3240505     -0.2314913     -0.0095416
v     -0.2152411     -0.2820216      0.0771163
v     -0.3486107     -0.2360266      0.0669616
v     -0.0300373     -0.3096140      0.0884974
v      0.1618441     -0.2795405      0.0894805
v      0.3090759     -0.2219445      0.0831910
v      0.4124806     -0.1254450     -0.1155930
v      0.4589594      0.0126048     -0.1130161
v      0.4479251      0.1451671     -0.1133525
v      0.3514669      0.2367174     -0.0979846
v      0.4319207     -0.1231527     -0.0121236
v      0.5000000      0.0148841     -0.0189951
v      0.4748991      0.1471360     -0.0100849
v      0.3769663      0.2534280     -0.0089258
v      0.4016118     -0.1162967      0.0850383
v      0.4564602      0.0113112      0.0876591
v      0.4423367      0.1433354      0.0818949
v      0.3533685      0.2395762      0.0795741
v      0.1807798      0.2970584     -0.1106877
v     -0.0499457      0.3190003     -0.1177067
v     -0.2559868      0.3031512     -0.1146849
v     -0.3772120      0.2349141     -0.0951232
v      0.1950429      0.3184337     -0.0125789
v     -0.0531978      0.3529235     -0.0141260
v     -0.2700843      0.3157741     -0.0118778
v     -0.3929318      0.2477440     -0.0122348
v      0.1825442      0.2982123      0.0889656
v     -0.0490505      0.3231217      0.0947920
v     -0.2540438      0.2972110      0.0886992
v     -0.3755925      0.2360137      0.0792533
v     -0.4473145      0.1352349     -0.1082583
v     -0.4736365     -0.0082505     -0.1163588
v     -0.4427585     -0.1540541     -0.1102634
v     -0.4803270      0.1459329     -0.0115466
v     -0.5000000     -0.0077021     -0.0139682
v     -0.4567707     -0.1543749     -0.0172514
v     -0.4474439      0.1348960      0.0873797
v     -0.4743092     -0.0082894      0.0930663
v     -0.4243066     -0.1421168      0.0771991
f       1       2       3
f       1       3       4
f       5       6       2
f       5       2       1
f       7       8       6
f       7       6       5
f       9      10       8
f       9       8       7
f      11       1       4
f      11       4      12
f      13       5       1
f      13       1      11
f      14       7       5
f      14       5      13
f      15       9       7
f      15       7      14
f      16      11      12
f      16      12      17
f      18      13      11
f      18      11      16
f      19      14      13
f      19      13      18
f      20      15      14
f      20      14      19
f      21      16      17
f      21      17      22
f      23      18      16
f      23      16      21
f      24      19      18
f      24      18      23
f      25      20      19
f      25      19      24
f      26      27      28
f      26      28      29
f      30      26      29
f      30      29      31
f      32      30      31
f      32      31      33
f      34      32      33
f      34      33      35
f      36      37      27
f      36      27      26
f      38      36      26
f      38      26      30
f      39      38      30
f      39      30      32
f      40      39      32
f      40      32      34
f      41      42      37
f      41      37      36
f      43      41      36
f      43      36      38
f      44      43      38
f      44      38      39
f      45      44      39
f      45      39      40
f      46      47      42
f      46      42      41
f      48      46      41
f      48      41      43
f      49      48      43
f      49      43      44
f      50      49      44
f      50      44      45
f      51      52       3
f      51       3       2
f      53      51       2
f      53       2       6
f      54      53       6
f      54       6       8
f      55      54       8
f      55       8      10
f      56      57      52
f      56      52      51
f      58      56      51
f      58      51      53
f      59      58      53
f      59      53      54
f      60      59      54
f      60      54      55
f      61      62      57
f      61      57      56
f      63      61      56
f      63      56      58
f      64      63      58
f      64      58      59
f      65      64      59
f      65      59      60
f      29      28      62
f      29      62      61
f      31      29      61
f      31      61      63
f      33      31      63
f      33      63      64
f      35      33      64
f      35      64      65
f      66      55      10
f      66      10       9
f      67      66       9
f      67       9      15
f      68      67      15
f      68      15      20
f      69      68      20
f      69      20      25
f      70      60      55
f      70      55      66
f      71      70      66
f      71      66      67
f      72      71      67
f      72      67      68
f      73      72      68
f      73      68      69
f      74      65      60
f      74      60      70
f      75      74      70
f      75      70      71
f      76      75      71
f      76      71      72
f      77      76      72
f      77      72      73
f      34      35      65
f      34      65      74
f      40      34      74
f      40      74      75
f      45      40      75
f      45      75      76
f      50      45      76
f      50      76      77
f      78      69      25
f      78      25      24
f      79      78      24
f      79      24      23
f      80      79      23
f      80      23      21
f      81      80      21
f      81      21      22
f      82      73      69
f      82      69      78
f      83      82      78
f      83      78      79
f      84      83      79
f      84      79      80
f      85      84      80
f      85      80      81
f      86      77      73
f      86      73      82
f      87      86      82
f      87      82      83
f      88      87      83
f      88      83      84
f      89      88      84
f      89      84      85
f      49      50      77
f      49      77      86
f      48      49      86
f      48      86      87
f      46      48      87
f      46      87      88
f      47      46      88
f      47      88      89
f      90      81      22
f      90      22      17
f      91      90      17
f      91      17      12
f      92      91      12
f      92      12       4
f      52      92       4
f      52       4       3
f      93      85      81
f      93      81      90
f      94      93      90
f      94      90      91
f      95      94      91
f      95      91      92
f      57      95      92
f      57      92      52
f      96      89      85
f      96      85      93
f      97      96      93
f      97      93      94
f      98      97      94
f      98      94      95
f      62      98      95
f      62      95      57
f      42      47      89
f      42      89      96
f      37      42      96
f      37      96      97
f      27      37      97
f      27      97      98
f      28      27      98
f      28      98      62
