\contentsline {section}{\numberline {1}Introduction}{2}{section.1}
\contentsline {section}{\numberline {2}Pr\IeC {\'e}sentation}{2}{section.2}
\contentsline {section}{\numberline {3}Entr\IeC {\'e}es}{4}{section.3}
\contentsline {subsection}{\numberline {3.1}Le fichier \textit {data.in}}{4}{subsection.3.1}
\contentsline {subsection}{\numberline {3.2}Les fichiers \textit {data/*.in}}{5}{subsection.3.2}
\contentsline {subsection}{\numberline {3.3}Le fichier \textit {includes/city\_parameters.inc}}{6}{subsection.3.3}
\contentsline {section}{\numberline {4}Sorties}{8}{section.4}
\contentsline {section}{\numberline {5}Evolution du code}{11}{section.5}
\contentsline {section}{\numberline {6}Copyright}{12}{section.6}
